Name, Code
Afghanistan,AF
Albanien,AL
Algerien,DZ
Amerikanisch-Samoa,AS
Andorra,AD
Angola,AO
Anguilla,AI
Antarktis,AQ
Antigua und Barbuda,AG
Argentinien,AR
Armenien,AM
Aruba,AW
Australien,AU
Österreich,AT
Aserbaidschan,AZ
Bahamas,BS
Bahrain,BH
Bangladesch,BD
Barbados,BB
Weißrussland,BY
Belgien,BE
Belize,BZ
Benin,BJ
Bermuda,BM
Bhutan,BT
"Bolivien, Plurinationaler Staat",BO
"Bonaire, Sint Eustatius und Saba",BQ
Bosnien und Herzegowina,BA
Botswana,BW
Bouvet-Insel,BV
Brasilien,BR
Britisches Territorium im Indischen Ozean,IO
Brunei Darussalam,BN
Bulgarien,BG
Burkina Faso,BF
Burundi,BI
Kambodscha,KH
Kamerun,CM
Kanada,CA
Kap Verde,CV
Kaimaninseln,KY
Zentralafrikanische Republik,CF
Tschad,TD
Chile,CL
China,CN
Weihnachtsinsel,CX
Kokosinseln (Keeling),CC
Kolumbien,CO
Komoren,KM
Kongo,CG
"Kongo, die Demokratische Republik Kongo, die",CD
Cook-Inseln,CK
Costa Rica,CR
CÃ'te d'Ivoire,CI
Kroatien,HR
Kuba,CU
Curacao,CW
Zypern,CY
Tschechische Republik,CZ
Dänemark,DK
Dschibuti,DJ
Dominica,DM
Dominikanische Republik,DO
Ecuador,EC
Ägypten,EG
El Salvador,SV
Äquatorialguinea,GQ
Eritrea,ER
Estland,EE
Äthiopien,ET
Falkland-Inseln (Malwinen),FK
Färöer-Inseln,FO
Fidschi,FJ
Finnland,FI
Frankreich,FR
Französisch-Guayana,GF
Französisch-Polynesien,PF
Französische Süd-Territorien,TF
Gabun,GA
Gambia,GM
Georgien,GE
Deutschland,DE
Ghana,GH
Gibraltar,GI
Griechenland,GR
Grönland,GL
Grenada,GD
Guadeloupe,GP
Guam,GU
Guatemala,GT
Guernsey,GG
Guinea,GN
Guinea-Bissau,GW
Guyana,GY
Haiti,HT
Heard Island und McDonaldinseln,HM
Heiliger Stuhl (Staat Vatikanstadt),VA
Honduras,HN
Hongkong,HK
Ungarn,HU
Island,IS
Indien,IN
Indonesien,ID
"Iran, Islamische Republik",IR
Irak,IQ
Irland,IE
Insel Man,IM
Israel,IL
Italien,IT
Jamaika,JM
Japan,JP
Jersey,JE
Jordanien,JO
Kasachstan,KZ
Kenia,KE
Kiribati,KI
"Korea, Demokratische Volksrepublik",KP
"Korea, Republik",KR
Kuwait,KW
Kirgisistan,KG
Demokratische Volksrepublik Laos,LA
Lettland,LV
Libanon,LB
Lesotho,LS
Liberia,LR
Libyen,LY
Liechtenstein,LI
Litauen,LT
Luxemburg,LU
Macao,MO
"Mazedonien, Ehemalige Jugoslawische Republik Mazedonien",MK
Madagaskar,MG
Malawi,MW
Malaysia,MY
Malediven,MV
Mali,ML
Malta,MT
Marshall-Inseln,MH
Martinique,MQ
Mauretanien,MR
Mauritius,MU
Mayotte,YT
Mexiko,MX
"Mikronesien, Föderierte Staaten von",FM
"Moldawien, Republik",MD
Monaco,MC
Mongolei,MN
Montenegro,ME
Montserrat,MS
Marokko,MA
Mosambik,MZ
Myanmar,MM
Namibia,NA
Nauru,NR
Nepal,NP
Niederlande,NL
Neukaledonien,NC
Neuseeland,NZ
Nicaragua,NI
Niger,NE
Nigeria,NG
Niue,NU
Norfolkinsel,NF
Nördliche Marianen-Inseln,MP
Norwegen,NO
Oman,OM
Pakistan,PK
Palau,PW
"Palästina, Staat",PS
Panama,PA
Papua-Neuguinea,PG
Paraguay,PY
Peru,PE
Philippinen,PH
Pitcairn,PN
Polen,PL
Portugal,PT
Puerto Rico,PR
Katar,QA
RÃ©union,RE
Rumänien,RO
Russische Föderation,RU
Ruanda,RW
Saint-Barthélemy,BL
"Heilige Helena, Himmelfahrt und Tristan da Cunha",SH
St. Kitts und Nevis,KN
St. Lucia,LC
Saint Martin (französischer Teil),MF
St. Pierre und Miquelon,PM
St. Vincent und die Grenadinen,VC
Samoa,WS
San Marino,SM
São Tomé und Príncipe,ST
Saudi-Arabien,SA
Senegal,SN
Serbien,RS
Seychellen,SC
Sierra Leone,SL
Singapur,SG
Sint Maarten (niederländischer Teil),SX
Slowakei,SK
Slowenien,SI
Salomon-Inseln,SB
Somalia,SO
Südafrika,ZA
Südgeorgien und die Südlichen Sandwichinseln,GS
Südsudan,SS
Spanien,ES
Sri Lanka,LK
Sudan,SD
Surinam,SR
Svalbard und Jan Mayen,SJ
Swasiland,SZ
Schweden,SE
Schweiz,CH
Arabische Republik Syrien,SY
"Taiwan, Provinz China",TW
Tadschikistan,TJ
"Tansania, Vereinigte Republik",TZ
Thailand,TH
Timor-Leste,TL
Togo,TG
Tokelau,TK
Tonga,TO
Trinidad und Tobago,TT
Tunesien,TN
Türkei,TR
Turkmenistan,TM
Turks- und Caicosinseln,TC
Tuvalu,TV
Uganda,UG
Ukraine,UA
Vereinigte Arabische Emirate,AE
Vereinigtes Königreich,GB
Vereinigte Staaten,US
Uruguay,UY
Usbekistan,UZ
Vanuatu,VU
"Venezuela, Bolivarische Republik",VE
Vietnam,VN
"Jungferninseln, Britisch",VG
"Jungferninseln, USA.",VI
Wallis und Futuna,WF
Westsahara,EH
Jemen,YE
Simbabwe,ZW