festivalid,genre
1099,Rock
461,Punk
865,Rock
1033,Metal
915,House
1202,Crossover
600,Trance
948,Metal
124,House
16,Hardcore (Metal)
287,Goa
622,Deutschrock
912,Folk
683,Dance
527,Kunst & Kultur
535,Dance
975,Hardcore (Metal)
335,Sport
28,Hip-Hop
361,Hip-Hop
412,Crossover
174,Rock
340,Reggae
487,Hip-Hop
14,Punk
285,Ska
45,Hardcore (Metal)
894,Dance
234,Metal
963,Deutschrock
166,Electro
658,Rock
817,Deutschrock
88,Rock
311,Blues
108,Rock
221,Mittelalter
1015,Rock
1128,Metal
77,Metal
370,Metal
676,Rock
218,Rock
824,Rock
1216,Crossover
927,Metal
185,Blues
157,Metal
565,Reggae
832,Metal
1048,Pirat
851,Hardcore (Metal)
694,Metal
863,Country
729,Pop
1211,Folk
386,Goa
481,Electro
845,Rock
987,Hardcore (Electro)
94,Hardcore (Metal)
921,Pop
1105,Punk
508,Rock
72,Comedy
914,Deutschrock
154,Rockabilly
622,Volksmusik
584,Gothic
798,Hardcore (Metal)
352,Ska
446,Hip-Hop
825,Pop
459,Goa
982,Mittelalter
727,Schlager
448,Ska
779,Punk
866,Punk
233,Electro
935,Metal
637,Dance
235,Electro
956,Rock
407,Hardcore (Metal)
21,Rock
1122,Metal
778,Pirat
199,Rock
35,Rock
404,Kunst & Kultur
896,Rock
125,Hip-Hop
598,Punk
383,Rock
1018,Trance
243,Electro
202,Trance
303,Metal
898,Electro
1195,Metal
369,Hip-Hop
50,Metal
186,House
531,Reggae
12,Deutschrock
767,Metal
1192,Deutschrock
117,Metal
51,Metal
127,Rock
542,Metal
287,Electro
945,Hardcore (Metal)
743,Electro
1127,Metal
209,Punk
759,Metal
900,Metal
1058,Pop
581,Punk
81,Metal
644,Hip-Hop
422,Sonstiges
204,Pop
956,Rockabilly
1003,Rock
850,Metal
518,Metal
1208,Rock
405,Electro
730,Dance
363,Deutschrock
461,Folk
1111,Electro
202,Reggae
1022,Rock
5,Gothic
902,Kunst & Kultur
603,Rock
227,Pop
1162,Gothic
309,Blues
660,Rock
358,Deutschrock
47,Mittelalter
655,Dance
556,Folk
841,Metal
202,Lesung
786,Metal
1025,Metal
444,Rock
870,Dance
1070,Pop
1193,Metal
988,Metal
386,Electro
147,Crossover
242,Gothic
1219,Deutschrock
1203,Metal
690,Dance
674,Gothic
468,Hardcore (Electro)
770,Rock
378,Rock
12,Volksmusik
659,Dance
146,Deutschrock
676,Hardcore (Metal)
624,Hardcore (Metal)
218,Hardcore (Metal)
619,Metal
625,Pop
735,Metal
567,Pop
223,Folk
1051,Rock
471,Electro
178,Pop
836,Rock
961,Pop
459,Electro
281,Country
53,Irish
835,Pop
1177,Rock
804,Hip-Hop
551,Sonstiges
877,Punk
555,Funk
98,Electro
48,Metal
404,Hip-Hop
565,Rock
1215,Metal
631,Hardcore (Metal)
95,Country
162,Punk
761,Metal
758,Deutschrock
908,Gothic
1184,Rock
796,House
1211,Hardcore (Metal)
721,Electro
1087,Metal
532,Electro
1105,Rock
424,Deutschrock
1188,Rock
305,Rock
61,Kunst & Kultur
286,Pop
489,Electro
970,Pop
848,Jazz
334,Electro
437,Metal
950,Pop
1173,Country
240,Metal
1153,Gothic
818,Folk
651,Electro
315,Ska
347,Metal
521,Folk
882,Rock
1143,Metal
779,Rock
244,Jazz
1029,House
178,Sonstiges
1062,Rock
429,Deutschrock
985,Metal
1197,Deutschrock
618,Metal
1220,Metal
1145,Electro
449,Rock
806,Dance
329,Rock
387,Mittelalter
53,Folk
393,Electro
598,Rock
326,Electro
601,Rock
1163,Rock
696,Metal
124,Dance
406,Volksmusik
783,House
628,Hip-Hop
1158,Metal
808,Punk
187,Metal
171,Rock
281,Electro
512,Goa
1155,Metal
528,Pop
976,Metal
156,Hardcore (Metal)
164,Rock
209,Rock
269,Hip-Hop
152,Blues
555,Reggae
991,Metal
1150,Metal
1218,Kunst & Kultur
205,Funk
986,Rock
206,Rock
7,Metal
477,Deutschrock
1209,Hardcore (Metal)
283,Country
351,Hardcore (Metal)
814,House
603,Hardcore (Metal)
921,Electro
730,Hardcore (Metal)
897,Rock
291,Pop
910,Pop
1129,Metal
202,Rock
1114,Metal
152,Pop
498,Punk
701,Electro
1017,Punk
594,Hip-Hop
612,Rock
820,Metal
458,Rock
564,Mittelalter
647,Metal
14,Hardcore (Metal)
588,Metal
898,Hip-Hop
889,Punk
1110,Metal
788,Mittelalter
394,Rock
381,Goa
782,Rock
416,House
906,Rock
562,Klassik
763,Rock
1207,Punk
392,Crossover
309,Country
893,Trance
1014,Metal
795,Hardcore (Electro)
1196,Metal
273,Electro
905,Pop
330,Punk
261,Deutschrock
353,Punk
751,Metal
423,Electro
1065,Metal
313,Metal
436,Gothic
614,Rock
877,Rock
1083,Rock
205,Reggae
177,Metal
898,Crossover
940,Metal
92,Goa
319,Rock
162,Rock
461,Blues
800,Rock
505,Goa
104,Sonstiges
941,Rock
101,Metal
558,Metal
186,Dance
684,Rock
18,Rock
30,Hardcore (Electro)
486,Klassik
530,Metal
649,Metal
238,Rock
408,Punk
554,Pop
1072,Electro
172,Metal
60,Film
102,Rock
497,Punk
765,Reggae
1209,Pop
833,Gothic
539,Hip-Hop
511,House
598,Hardcore (Metal)
377,Blues
1045,Rock
513,Sonstiges
1180,Metal
210,Hardcore (Metal)
56,House
1041,Electro
301,Metal
538,Kunst & Kultur
1048,Mittelalter
170,Afrika
692,Hardcore (Metal)
1034,Metal
691,Lesung
407,Electro
790,Volksmusik
808,Rock
327,Gothic
236,Deutschrock
961,Electro
1126,Hardcore (Metal)
46,Metal
813,Metal
377,Pop
1193,Punk
532,Hip-Hop
609,Metal
668,Hip-Hop
639,Reggae
142,Deutschrock
1204,Rock
381,Electro
989,Rock
1080,Rock
1019,Pop
325,Pop
1214,Metal
823,Electro
198,Goa
86,Metal
1082,Pop
239,House
229,Rock
279,Punk
996,Metal
832,Folk
72,Folk
336,Deutschrock
849,Metal
411,Pirat
366,Metal
546,Crossover
1178,Rock
97,Electro
498,Rock
327,Crossover
848,Funk
853,Deutschrock
1017,Rock
1139,Electro
1099,Electro
946,Rock
9,Punk
335,Goa
121,Deutschrock
326,Hip-Hop
391,Rock
1056,Metal
796,Dance
244,Funk
517,Metal
241,Sonstiges
331,Metal
652,Metal
1013,Rock
1207,Rock
719,Gothic
551,Kunst & Kultur
154,Ska
179,Hardcore (Electro)
236,Volksmusik
457,Dance
535,Electro
440,Reggae
367,Jazz
1002,Punk
26,House
729,Hip-Hop
99,Metal
658,Electro
330,Rock
368,Lesung
353,Rock
899,Deutschrock
250,Kunst & Kultur
311,Hip-Hop
419,Hardcore (Metal)
656,Electro
921,Hip-Hop
1029,Dance
894,Electro
856,Punk
1084,Dance
1109,Sonstiges
519,Metal
860,Rock
1199,Gothic
381,Film
540,Metal
19,Rock
265,Metal
542,Folk
508,Ska
254,Metal
475,Jazz
825,Hip-Hop
840,Mittelalter
783,Dance
613,Rock
465,Punk
81,Folk
1094,Goa
1157,Rock
375,Metal
853,Volksmusik
862,Metal
1190,Metal
246,Metal
408,Rock
441,Jazz
729,Crossover
321,Trance
579,Pop
997,Rock
497,Rock
7,Punk
129,Punk
622,Metal
814,Dance
789,Hip-Hop
857,Electro
244,Reggae
1091,Folk
490,House
198,Electro
638,Pop
908,Metal
1081,Trance
278,Metal
422,Crossover
25,Rock
545,Jazz
1061,Jazz
561,Deutschrock
963,Metal
292,Punk
896,Electro
1091,Rock
1202,Punk
431,Punk
204,Hip-Hop
15,Deutschrock
1174,Rock
1221,Gothic
820,Punk
1002,Irish
412,Punk
120,Deutschrock
994,Metal
992,Metal
439,Sonstiges
965,Rock
322,Punk
127,Electro
416,Dance
430,Pop
1118,Rock
794,Jazz
227,Hip-Hop
643,Rock
289,Rock
917,Rock
415,Comedy
515,Sonstiges
724,Metal
741,Kunst & Kultur
445,Punk
279,Rock
503,Ska
748,Metal
157,Hardcore (Metal)
139,Pop
360,Trance
589,Rock
1070,Hip-Hop
1043,Metal
792,Rock
343,House
957,Punk
528,Kunst & Kultur
650,Trance
1200,Gothic
559,Gothic
96,Rock
100,Pop
566,Reggae
809,House
9,Rock
904,Schlager
57,Rock
1102,Hardcore (Metal)
487,Punk
443,Punk
101,Punk
745,Kunst & Kultur
178,Hip-Hop
655,Electro
1073,Metal
150,Jazz
123,Rock
812,Sonstiges
870,Electro
318,Deutschrock
618,Folk
132,Mittelalter
1002,Rock
1136,Hip-Hop
831,Rock
402,Rock
823,Hip-Hop
1048,Rock
12,Metal
324,Metal
202,Goa
565,Ska
1192,Metal
511,Dance
594,Metal
690,Electro
856,Rock
582,Rock
4,Rock
659,Electro
56,Dance
370,Blues
103,Mittelalter
12,Comedy
970,Hip-Hop
1044,Pop
143,Hip-Hop
508,Volksmusik
1034,Punk
542,Hardcore (Metal)
272,House
67,Metal
56,Rock
359,Metal
874,Metal
1105,Electro
446,Punk
837,Trance
493,Rock
211,Metal
78,Rock
734,Ska
232,Metal
1179,Rock
595,Rock
938,Rock
436,Metal
778,Rock
456,Rock
298,Punk
617,Kunst & Kultur
931,Rock
239,Dance
1123,Metal
125,Punk
1035,Rock
889,Pop
496,Rockabilly
390,Pop
528,Hip-Hop
879,Klassik
417,Hip-Hop
292,Rock
1202,Rock
1213,House
431,Rock
1193,Hardcore (Metal)
369,Lesung
575,Kunst & Kultur
91,Pop
412,Rock
578,Rock
679,Metal
806,Electro
861,Rock
1203,Hardcore (Metal)
510,House
291,Hip-Hop
322,Rock
406,Metal
8,Metal
24,Rock
915,Electro
51,Blues
605,Metal
1023,Punk
124,Electro
1182,Electro
589,Hardcore (Metal)
5,Punk
1037,Folk
1153,Mittelalter
1211,Gothic
202,Ska
758,Metal
445,Rock
72,Sonstiges
5,Lesung
424,Metal
840,Rock
632,Rock
809,Disco
241,Kunst & Kultur
857,Hip-Hop
995,Pop
858,Rock
523,Metal
1079,Lesung
957,Rock
1216,Rock
9,Hardcore (Metal)
1069,Jazz
207,Rock
28,Rock
361,Rock
264,Irish
145,Disco
226,Pop
886,Rock
487,Rock
458,Electro
784,Metal
1124,Rock
443,Rock
91,Sonstiges
429,Metal
1030,Country
802,Metal
452,Hardcore (Electro)
638,Electro
1115,Metal
1002,Hardcore (Metal)
1,Rock
402,Hardcore (Metal)
299,Pop
277,Metal
1190,Punk
544,Punk
354,Rock
357,Metal
904,Rock
1079,Sport
737,Mittelalter
89,Rock
1001,Rock
597,Rock
1138,Jazz
166,Trance
279,Blues
128,Metal
490,Dance
374,Punk
918,Pop
367,Lesung
455,Pop
627,Metal
380,Rock
430,Electro
584,Folk
988,Pop
552,Metal
442,Crossover
554,Hip-Hop
226,Sonstiges
730,Hip-Hop
475,Reggae
928,Metal
405,House
481,Trance
264,Folk
1162,Irish
897,Deutschrock
1106,Dance
777,Metal
615,Rock
936,Rock
1209,Hip-Hop
140,Metal
880,Electro
446,Rock
1217,Metal
7,Hardcore (Metal)
450,Pop
943,Metal
929,Metal
642,Punk
682,Kunst & Kultur
875,Metal
968,Deutschrock
556,Gothic
485,Rock
612,Deutschrock
186,Electro
156,Crossover
298,Rock
290,Punk
59,Metal
973,Metal
125,Rock
382,Punk
878,Lesung
541,Sonstiges
431,Hardcore (Metal)
315,Metal
343,Dance
1004,Dance
55,Rock
235,Trance
377,Hip-Hop
1165,Rock
763,Deutschrock
591,Blues
369,Rock
461,Crossover
517,Folk
557,Dance
628,Punk
412,Hardcore (Metal)
591,Afrika
647,Hardcore (Metal)
834,Metal
981,Metal
925,Hip-Hop
903,Metal
1209,Crossover
932,Rock
1010,Metal
809,Dance
1012,Rock
1019,Hip-Hop
681,Pop
1096,Rock
203,Sonstiges
1082,Hip-Hop
132,Rock
644,Rock
32,Trance
147,Rock
425,Metal
934,Metal
1113,Punk
213,Jazz
230,Metal
1014,Hardcore (Metal)
145,Dance
316,House
445,Hardcore (Metal)
1159,Metal
591,Pop
1023,Rock
897,Volksmusik
1196,Hardcore (Metal)
878,Sport
5,Rock
670,Pop
800,Deutschrock
1100,Rock
234,Electro
257,Metal
241,Crossover
103,Rock
183,Rock
711,Metal
833,Mittelalter
1158,Pop
66,Pop
778,Klassik
243,Reggae
276,Metal
488,Metal
1050,Rock
350,Punk
11,Metal
43,Pop
498,Electro
101,Hardcore (Metal)
179,Sonstiges
812,Kunst & Kultur
674,Rock
22,Hardcore (Electro)
1190,Folk
272,Dance
1146,Dance
327,Mittelalter
399,Gothic
255,Crossover
359,Punk
667,Metal
951,Rock
1074,Metal
990,Metal
395,Metal
247,Metal
420,Rock
597,Hardcore (Metal)
1013,Electro
544,Rock
580,Klassik
692,Gothic
796,Electro
307,Pop
993,Electro
930,Rock
421,Jazz
804,Rock
380,Hardcore (Metal)
236,Metal
453,Disco
374,Rock
1123,Punk
271,Rock
352,Punk
353,Electro
953,Metal
1068,Hardcore (Electro)
1187,House
314,Electro
457,Electro
142,Metal
236,Comedy
1213,Dance
992,Folk
312,Hardcore (Electro)
19,Electro
428,Rock
1029,Electro
1084,Electro
872,Volksmusik
1014,Pop
480,Ska
520,Metal
687,Metal
142,Comedy
692,Crossover
709,Rock
1153,Rock
279,Country
1196,Pop
510,Dance
781,Country
1214,Hardcore (Metal)
638,Hip-Hop
833,Punk
636,Kunst & Kultur
469,Reggae
797,Metal
853,Metal
783,Electro
996,Hardcore (Metal)
616,Dance
290,Rock
872,Kunst & Kultur
262,Ska
439,Crossover
1222,Metal
74,Metal
558,Pop
628,Rock
84,Pop
814,Electro
267,Schlager
98,Lesung
769,Metal
546,Lesung
1198,Deutschrock
188,Rock
702,Rock
438,Rock
87,Afrika
269,Rock
819,Rock
29,Rock
974,Rock
737,Rock
1086,Rock
1113,Rock
364,Country
651,Reggae
423,House
537,Metal
741,Metal
392,Rock
63,Metal
803,Metal
411,Rock
122,Metal
854,Metal
1050,Hardcore (Metal)
86,Blues
839,Rock
416,Electro
843,Metal
1120,Metal
697,Rock
1170,Rock
525,Punk
771,Rock
1161,Film
675,Rock
813,Pop
821,Metal
243,Rock
1000,Schlager
359,Folk
978,Rock
562,Jazz
373,Metal
745,Metal
755,Pop
874,Folk
1212,Gothic
453,Dance
71,Crossover
137,Punk
885,Metal
405,Dance
719,Punk
673,Pop
232,Folk
1033,Hip-Hop
1190,Hardcore (Metal)
282,Rock
436,Folk
746,Gothic
440,Ska
561,Metal
53,Pirat
527,Pop
15,Metal
689,Metal
1199,Punk
908,Hardcore (Metal)
1044,Hip-Hop
1152,Rock
1160,Punk
345,Rock
120,Metal
159,Hip-Hop
422,Punk
1079,Klassik
492,Kunst & Kultur
384,Rock
652,Pop
165,Metal
1218,Folk
338,Rock
70,Folk
189,Metal
511,Electro
954,Pop
191,Metal
465,Electro
3,Pop
56,Electro
938,Ska
1055,Rock
66,Electro
1158,Electro
633,Punk
833,Rock
939,Metal
1103,Rock
316,Dance
1159,Punk
539,Rock
390,Hip-Hop
499,Metal
744,Trance
512,Trance
1066,Metal
129,Electro
1093,Metal
725,Rock
265,Pop
1092,Electro
344,Schlager
891,Metal
296,Rock
731,Jazz
546,Rock
173,Deutschrock
327,Rock
123,Deutschrock
728,Pop
726,Hip-Hop
318,Metal
239,Electro
1070,Schlager
721,Rock
532,Rock
421,Funk
959,Rock
512,Reggae
551,Punk
162,Pirat
856,Deutschrock
302,Metal
357,Folk
924,Rock
651,Rock
267,Rock
248,Metal
158,Crossover
542,Gothic
51,Gothic
645,House
900,Gothic
81,Gothic
559,Punk
1196,Electro
452,Sonstiges
525,Rock
878,Klassik
141,Metal
922,Rock
1187,Dance
326,Rock
595,Deutschrock
677,Rock
573,Metal
1040,Metal
359,Hardcore (Metal)
400,Reggae
444,Metal
135,Sonstiges
178,Punk
281,Rock
719,Rock
180,Metal
827,Dance
875,Folk
232,Hardcore (Metal)
97,Schlager
791,Metal
284,Metal
105,Hardcore (Electro)
530,Electro
84,Electro
1202,Deutschrock
216,Metal
311,Rock
704,Rock
921,Rock
352,Hardcore (Metal)
466,Pop
799,Kunst & Kultur
354,Electro
1199,Rock
572,Blues
1160,Rock
578,Deutschrock
322,Deutschrock
422,Rock
678,Punk
825,Rock
1131,Gothic
462,Blues
1141,Metal
894,Trance
574,Metal
450,Hip-Hop
478,Rock
217,Punk
1119,Punk
826,Deutschrock
490,Electro
1060,Metal
1171,Metal
502,Metal
130,Metal
1097,Metal
23,Country
632,Deutschrock
832,Pirat
16,Rock
1076,Pop
1216,Deutschrock
274,Dance
381,Sport
633,Rock
975,Rock
813,Electro
741,Punk
167,Metal
1194,Rock
332,Punk
1106,Electro
45,Rock
673,Electro
54,Kunst & Kultur
545,Pop
506,Metal
11,Folk
868,Metal
1058,Rock
1053,Gothic
1221,Rock
204,Rock
569,Hardcore (Electro)
227,Dance
396,Electro
599,Pop
244,Kunst & Kultur
126,Hip-Hop
256,Folk
591,Hip-Hop
606,Dance
732,Deutschrock
745,Punk
1115,Hardcore (Metal)
670,Hip-Hop
227,Rock
910,Punk
277,Hardcore (Metal)
644,Electro
557,Electro
826,Volksmusik
1123,Pop
1211,Punk
74,Irish
66,Hip-Hop
805,Punk
432,Rock
559,Folk
754,Punk
224,Metal
809,Electro
236,Folk
1070,Rock
1100,Electro
976,Gothic
295,Rock
892,Rock
129,Hip-Hop
145,Electro
1071,Pop
591,Crossover
202,Metal
137,Hardcore (Metal)
184,Metal
1057,Jazz
442,Punk
928,Hardcore (Metal)
968,Metal
406,Pop
838,Rock
625,Rock
567,Rock
810,Irish
1089,Metal
905,Punk
178,Rock
961,Rock
242,Electro
355,Metal
1217,Hardcore (Metal)
127,Reggae
307,Hip-Hop
835,Rock
435,Metal
929,Hardcore (Metal)
1186,Metal
225,Rock
452,Electro
479,Metal
43,Crossover
621,Rock
1199,Hardcore (Metal)
703,Rock
482,Rock
507,Pop
823,Rock
369,Film
586,Hip-Hop
74,Folk
945,Rock
272,Electro
1146,Electro
7,Crossover
143,Dance
883,Rock
914,Ska
1047,Metal
1052,Kunst & Kultur
804,Electro
1156,Rock
10,Deutschrock
1014,Hip-Hop
970,Rock
97,Rock
404,Electro
476,House
898,Goa
1032,Metal
678,Rock
950,Rock
614,Metal
1121,Metal
1196,Hip-Hop
484,Rock
659,Trance
1026,Schlager
217,Rock
534,Trance
1119,Rock
1209,Punk
529,Pop
5,Deutschrock
1037,Gothic
818,Mittelalter
317,Pop
741,Dance
810,Folk
425,Hardcore (Metal)
521,Mittelalter
756,Hip-Hop
1079,Film
1159,Hardcore (Metal)
504,Metal
1142,Rock
122,Folk
623,Metal
558,Hip-Hop
712,Metal
113,Metal
718,Electro
811,Punk
912,Rock
1205,Metal
1213,Electro
530,Hip-Hop
879,Jazz
53,Mittelalter
332,Rock
692,Mittelalter
241,Punk
252,Metal
1196,Crossover
172,Hip-Hop
290,Electro
510,Electro
528,Rock
645,Dance
170,Reggae
745,Dance
745,Folk
895,Rock
11,Hardcore (Metal)
148,Rock
274,Latin
410,Afrika
434,Dance
925,Punk
141,Punk
616,Electro
473,Metal
628,Electro
666,Metal
602,Metal
1036,Rock
573,Punk
291,Rock
87,Hip-Hop
910,Rock
310,Pop
410,Pop
806,Trance
152,Rock
842,Jazz
1211,Rock
426,Metal
538,Pop
403,Ska
237,Hip-Hop
805,Rock
1200,Hardcore (Metal)
294,Metal
154,Folk
559,Hardcore (Metal)
813,Hip-Hop
857,Rock
112,Pop
124,Trance
680,Metal
1210,Crossover
755,Hip-Hop
135,Kunst & Kultur
264,Gothic
903,Pop
1214,Gothic
212,Pop
460,Rock
442,Rock
934,Pop
210,Punk
399,Punk
1149,Metal
905,Rock
878,Film
995,Metal
65,Metal
391,Metal
527,Hip-Hop
245,Rock
1088,Metal
692,Punk
958,Sport
346,Volksmusik
599,Electro
453,Electro
62,Metal
1126,Punk
415,Kunst & Kultur
476,Disco
1145,Goa
652,Hip-Hop
156,Rock
1198,Metal
387,Metal
766,Metal
436,Electro
1183,Metal
439,Punk
846,Metal
554,Rock
1038,Punk
954,Hip-Hop
169,Rock
64,Metal
3,Hip-Hop
868,Punk
730,Rock
116,Pop
1119,Hardcore (Metal)
579,Punk
1123,Electro
288,Metal
367,Kunst & Kultur
461,Rock
1112,Metal
384,Electro
1209,Rock
463,Metal
312,Electro
250,Pop
741,Hardcore (Metal)
913,Punk
839,Deutschrock
1024,Rock
533,Punk
265,Hip-Hop
550,Metal
14,Rock
811,Rock
1075,Pop
13,Metal
470,Klassik
997,Metal
151,Goa
736,Rock
1095,Metal
847,Rock
546,Ska
3,Crossover
186,Trance
377,Rock
1190,Gothic
36,House
785,Schlager
6,Metal
1147,Punk
316,Electro
282,Deutschrock
563,Hip-Hop
925,Rock
373,Hardcore (Metal)
812,Punk
25,Metal
325,Rock
223,Rock
385,Metal
202,Hardcore (Electro)
409,Rock
71,Punk
265,Crossover
454,Schlager
864,Folk
1089,Punk
250,Sonstiges
805,Hardcore (Metal)
750,Metal
596,Rock
924,Ska
668,Electro
355,Punk
963,Gothic
255,Rock
545,Kunst & Kultur
561,Hardcore (Metal)
1151,Metal
832,Mittelalter
774,Pop
1101,Metal
72,Mittelalter
608,Pop
778,Jazz
1053,Metal
371,Sonstiges
114,Metal
338,Deutschrock
992,Gothic
155,Rock
349,Schlager
491,Metal
794,Kunst & Kultur
818,Rock
822,Afrika
476,Dance
1212,Punk
30,House
521,Rock
1060,Folk
1185,Metal
210,Rock
537,Pop
1033,Punk
191,Hardcore (Metal)
501,Punk
580,Jazz
629,Hardcore (Metal)
948,Punk
733,Rock
716,House
745,Blues
349,Punk
466,Hip-Hop
867,Metal
1064,Rock
270,Rock
692,Rock
1187,Electro
311,Ska
98,Film
581,Rock
173,Metal
439,Folk
546,Film
327,Deutschrock
723,Rock
734,Folk
926,Electro
1044,Punk
320,Reggae
1126,Rock
776,Pop
827,Electro
1016,Rock
661,Trance
368,Metal
159,Punk
796,Trance
440,Metal
745,Pop
1127,Mittelalter
150,Kunst & Kultur
1028,Sonstiges
151,Electro
81,Mittelalter
163,Ska
77,Punk
339,Deutschrock
498,Reggae
1038,Rock
1125,Rock
154,Blues
318,Hardcore (Metal)
361,Jazz
579,Rock
157,Punk
422,Electro
1162,Pirat
825,Electro
12,Gothic
197,Metal
983,Rock
468,Dance
1098,Rock
556,Hardcore (Metal)
1024,Hardcore (Metal)
388,Metal
666,Punk
104,Pop
1059,Deutschrock
638,Rock
811,Hardcore (Metal)
15,Pop
293,Rock
545,Hip-Hop
1091,Mittelalter
922,Deutschrock
168,Metal
869,Metal
1201,Metal
158,Punk
359,Gothic
599,Hip-Hop
998,Rock
1168,Metal
91,Punk
925,Hardcore (Metal)
281,Deutschrock
746,Irish
141,Hardcore (Metal)
232,Gothic
503,Hardcore (Metal)
1042,Metal
430,Rock
1147,Rock
1192,Crossover
907,Metal
1040,Hardcore (Metal)
573,Hardcore (Metal)
419,Rock
180,Hardcore (Metal)
464,Rock
617,Pop
982,Folk
71,Rock
547,Rock
98,Kunst & Kultur
179,House
303,Punk
512,Ska
139,Rock
611,Rock
967,Rock
306,Rock
785,Rock
524,Metal
299,Schlager
542,Punk
923,Metal
154,Sonstiges
304,Rock
665,Rock
606,Electro
900,Punk
1218,Gothic
478,Deutschrock
583,Metal
542,Lesung
1210,Metal
556,Klassik
17,Metal
826,Metal
340,Latin
1154,Rock
134,Metal
1141,Hardcore (Metal)
560,Metal
562,Pop
369,Jazz
1212,Rock
858,Metal
509,Rock
416,Trance
746,Folk
400,Ska
402,Mittelalter
1191,Deutschrock
1033,Rock
109,Volksmusik
502,Hardcore (Metal)
130,Hardcore (Metal)
553,House
793,Ska
948,Rock
112,Kunst & Kultur
618,Mittelalter
45,Deutschrock
623,Folk
349,Rock
178,Electro
1205,Folk
1007,Metal
107,Ska
1092,House
376,Metal
323,Film
784,Gothic
1044,Rock
234,Rock
85,Metal
1079,Jazz
699,Metal
1197,Gothic
279,Reggae
159,Rock
1038,Hardcore (Metal)
732,Metal
529,Hip-Hop
1128,Rock
36,Dance
317,Hip-Hop
630,Metal
450,Punk
493,Funk
1077,Jazz
808,Rockabilly
77,Rock
90,Pop
370,Rock
970,Electro
157,Rock
577,Metal
608,Electro
1117,Rock
1020,Metal
143,Electro
778,Funk
832,Rock
864,Pop
533,Hardcore (Metal)
949,Metal
889,Rock
795,Dance
60,Kunst & Kultur
511,Trance
1176,Metal
390,Rock
477,Gothic
431,Mittelalter
1148,Metal
707,Metal
249,Pop
647,Mittelalter
407,Deutschrock
485,Metal
3,Metal
91,Rock
639,Punk
148,Ska
1005,Metal
706,Pop
1217,Gothic
483,Deutschrock
2,Metal
528,Electro
314,Rock
439,Blues
935,Rock
734,Blues
222,Metal
945,Deutschrock
645,Electro
371,Kunst & Kultur
576,Metal
932,Metal
239,Trance
1195,Rock
112,Hip-Hop
745,Electro
1037,Mittelalter
716,Dance
291,Electro
50,Rock
66,Punk
1158,Punk
434,Electro
493,Reggae
10,Metal
369,Comedy
757,House
910,Electro
720,Metal
117,Rock
51,Rock
542,Rock
938,Reggae
952,Metal
1189,Metal
868,Pop
212,Hip-Hop
361,Funk
759,Rock
226,Rock
81,Rock
878,Jazz
742,Metal
217,Deutschrock
900,Rock
901,Metal
850,Rock
266,Trance
372,Mittelalter
512,Kunst & Kultur
833,Pirat
548,Metal
693,Rock
913,Pop
1033,Hardcore (Metal)
299,Rock
828,Metal
5,Comedy
1079,Comedy
841,Rock
83,Jazz
430,Klassik
640,Metal
26,Trance
412,Reggae
786,Rock
817,Metal
1025,Rock
1133,Metal
918,Rock
455,Rock
1193,Rock
676,Deutschrock
11,Gothic
513,Electro
988,Rock
586,Punk
156,Ska
897,Pop
1203,Rock
604,Pop
139,Klassik
620,House
812,Pop
200,Metal
869,Punk
202,Pop
962,Rock
1014,Punk
77,Hardcore (Metal)
346,Metal
585,Ska
654,Dance
381,Kunst & Kultur
93,Metal
619,Rock
735,Rock
660,Ska
461,Ska
1196,Punk
262,Folk
175,Pop
450,Rock
264,Mittelalter
133,Punk
271,Metal
1211,Deutschrock
708,Hardcore (Electro)
361,Reggae
201,Electro
394,Pop
231,Metal
48,Rock
367,Comedy
479,Pop
236,Gothic
756,Punk
342,Metal
852,Metal
1215,Rock
698,Metal
1209,Electro
179,Dance
761,Rock
75,Electro
37,Metal
490,Trance
558,Punk
1053,Folk
142,Gothic
942,Metal
551,Crossover
1087,Rock
115,Pop
21,Deutschrock
294,Hardcore (Metal)
494,Metal
1046,Metal
369,Funk
176,Metal
92,Kunst & Kultur
73,Rock
524,Punk
505,Kunst & Kultur
641,Hip-Hop
172,Punk
437,Rock
202,Sonstiges
240,Rock
591,Dance
517,Mittelalter
250,Crossover
1210,Punk
516,Hardcore (Electro)
1106,Trance
364,Rock
147,Funk
134,Punk
1220,Rock
985,Rock
39,Folk
591,Rock
303,Hardcore (Metal)
452,House
515,Goa
878,Comedy
925,Electro
1162,Mittelalter
1195,Hardcore (Metal)
65,Hardcore (Metal)
325,Electro
301,Punk
608,Hip-Hop
872,Pop
1004,House
113,Pop
553,Dance
696,Rock
991,Folk
413,Metal
363,Metal
465,Rock
634,Metal
1146,House
887,Punk
1158,Rock
66,Rock
900,Hardcore (Metal)
337,Metal
769,Hip-Hop
1092,Dance
1155,Rock
251,Rock
343,Trance
603,Deutschrock
242,Mittelalter
730,Deutschrock
976,Rock
991,Rock
557,Trance
1150,Rock
593,Metal
358,Metal
755,Punk
300,Hip-Hop
340,Electro
1176,Folk
7,Rock
673,Punk
537,Hip-Hop
741,Hip-Hop
1135,Metal
233,Metal
403,Metal
666,Pop
710,Metal
369,Reggae
14,Deutschrock
1129,Rock
1132,Metal
1114,Rock
198,Kunst & Kultur
307,Rock
718,House
146,Metal
263,Pop
399,Electro
820,Rock
776,Hip-Hop
581,Ska
555,Pop
647,Rock
588,Rock
476,Electro
427,Hardcore (Metal)
752,Pop
933,Metal
1056,Punk
1110,Rock
745,Hip-Hop
1014,Dance
192,Film
562,Kunst & Kultur
652,Punk
890,Metal
223,Deutschrock
472,Metal
1166,Pop
335,Kunst & Kultur
127,Kunst & Kultur
616,House
749,Metal
1014,Rock
907,Folk
954,Punk
713,Metal
3,Punk
272,Trance
1188,Deutschrock
1196,Rock
104,Hip-Hop
561,Gothic
751,Rock
133,Rock
385,Hardcore (Metal)
15,Hip-Hop
506,Electro
1065,Rock
177,Rock
756,Rock
940,Rock
118,Pop
515,Electro
265,Punk
654,Latin
555,Sonstiges
1151,Hardcore (Metal)
268,Punk
571,Punk
1197,Metal
101,Rock
558,Rock
669,Rock
837,Hardcore (Electro)
1198,Pop
530,Rock
757,Dance
365,Punk
84,Rock
649,Rock
879,Pop
492,Pop
468,Electro
347,Hardcore (Metal)
495,Blues
531,Electro
246,Punk
172,Rock
455,Klassik
561,Crossover
401,Crossover
491,Hardcore (Metal)
901,Punk
1063,Metal
38,Electro
508,Hip-Hop
83,Funk
1078,Punk
207,Rockabilly
1190,Lesung
471,Metal
15,Crossover
622,Punk
205,Pop
545,House
162,Ska
389,Metal
154,Crossover
517,Irish
1180,Rock
203,Klassik
46,Folk
301,Rock
153,Metal
477,Metal
664,Klassik
1034,Rock
74,Pirat
887,Rock
976,Hardcore (Metal)
199,Gothic
697,Funk
1052,Folk
139,Electro
237,Rock
997,Pop
1089,Electro
160,Country
355,Electro
813,Rock
339,Metal
492,Sonstiges
208,Metal
609,Rock
562,Hip-Hop
1008,Metal
348,Rock
1142,Metal
458,Deutschrock
359,Mittelalter
673,Rock
686,Metal
958,Kunst & Kultur
1214,Rock
86,Rock
639,Blues
205,Sonstiges
1031,Metal
653,Pop
115,Electro
367,Hardcore (Electro)
949,Folk
1043,Punk
393,Metal
126,Blues
808,Ska
922,Metal
388,Hardcore (Metal)
1107,Punk
328,Metal
587,Pop
447,Metal
231,Punk
947,Metal
1033,Electro
610,Metal
164,Volksmusik
261,Metal
109,Metal
228,Metal
331,Rock
475,Punk
652,Rock
320,Ska
920,Electro
398,Metal
196,Metal
494,Punk
792,Pop
1044,Electro
1218,Mittelalter
113,Electro
1169,Metal
69,House
572,Punk
405,Trance
43,Klassik
159,Electro
70,Mittelalter
340,Hip-Hop
441,Punk
285,Punk
954,Rock
99,Rock
39,Pop
12,Punk
110,Metal
1192,Punk
185,Metal
452,Dance
147,Rockabilly
519,Rock
379,Metal
249,Hip-Hop
780,House
540,Rock
799,Pop
173,Pop
190,Metal
1054,House
202,Kunst & Kultur
36,Electro
265,Rock
254,Rock
829,Pop
41,Pop
524,Hardcore (Metal)
666,Electro
72,Electro
952,Folk
399,Hip-Hop
706,Hip-Hop
397,Blues
362,Metal
375,Rock
259,Jazz
390,Electro
1210,Hardcore (Metal)
728,Rock
1190,Rock
246,Rock
1191,Metal
944,Metal
134,Hardcore (Metal)
358,Punk
795,Electro
1078,Rock
161,Electro
131,Punk
563,Rock
622,Rock
848,Blues
404,Rock
388,Pop
403,Punk
1006,Punk
397,Pop
301,Hardcore (Metal)
467,Pop
514,Schlager
700,Metal
908,Rock
244,Blues
278,Rock
316,Trance
448,Punk
590,Pop
1166,Electro
244,Afrika
506,Hip-Hop
82,Rock
963,Rock
718,Dance
646,Reggae
785,Volksmusik
61,Sport
869,Pop
408,Ska
1130,Metal
851,Metal
937,Metal
30,Electro
418,House
1175,Metal
336,Metal
497,Ska
992,Rock
717,House
1164,Metal
94,Metal
287,Hardcore (Electro)
512,Metal
642,Rock
20,Metal
699,Hardcore (Metal)
244,Pop
913,Hip-Hop
367,Folk
928,Mittelalter
531,Hip-Hop
716,Electro
815,Metal
121,Metal
914,Folk
798,Metal
724,Rock
215,Metal
758,Punk
382,Rock
889,Deutschrock
526,Afrika
424,Punk
342,Folk
852,Folk
356,Pop
875,Mittelalter
1043,Rock
1145,Trance
693,Electro
1207,Deutschrock
1107,Rock
607,Hardcore (Electro)
475,Folk
604,Hip-Hop
407,Metal
331,Hardcore (Metal)
202,Hip-Hop
899,Metal
483,Metal
639,Country
778,Sonstiges
913,Crossover
429,Punk
455,Electro
134,Pop
793,Metal
175,Hip-Hop
31,Hip-Hop
279,Ska
3,Hardcore (Metal)
12,Folk
355,Hip-Hop
529,Punk
1073,Rock
107,Metal
858,Pop
277,Punk
193,Metal
33,Blues
2,Hardcore (Metal)
479,Hip-Hop
572,Rock
827,Trance
203,Electro
285,Rock
1076,Rock
1131,Electro
381,Comedy
1192,Rock
324,Rock
594,Rock
462,Rock
1140,Metal
566,Pop
542,Deutschrock
613,Metal
657,Reggae
115,Hip-Hop
363,Folk
350,Rock
268,Hardcore (Metal)
764,Punk
337,Folk
414,Dance
477,Punk
928,Punk
67,Rock
1189,Hardcore (Metal)
359,Rock
653,Electro
901,Hardcore (Metal)
874,Rock
800,Gothic
311,Reggae
1068,Dance
211,Rock
333,Pop
801,Klassik
179,Electro
1060,Pirat
1067,Metal
568,House
898,Rockabilly
436,Rock
131,Rock
1053,Electro
88,Metal
256,Mittelalter
872,Hip-Hop
1015,Metal
113,Hip-Hop
1132,Folk
1205,Gothic
1123,Rock
676,Metal
146,Folk
352,Rock
218,Metal
536,Pop
762,Electro
824,Metal
963,Hardcore (Metal)
167,Pirat
423,Trance
790,Schlager
1199,Lesung
315,Punk
879,Kunst & Kultur
448,Rock
817,Hardcore (Metal)
549,Pop
538,Lesung
670,Electro
845,Metal
744,House
903,Punk
772,Metal
111,Punk
1071,Rock
212,Punk
666,Hip-Hop
679,Rock
789,Reggae
70,Rock
195,Rock
934,Punk
43,Electro
346,Hardcore (Metal)
553,Electro
605,Rock
1011,Country
606,Trance
9,Deutschrock
69,Dance
1211,Comedy
758,Rock
752,Hip-Hop
571,Pop
424,Rock
21,Metal
110,Punk
259,Funk
523,Rock
199,Metal
35,Metal
10,Pop
784,Folk
977,Metal
412,Ska
383,Metal
780,Dance
307,Electro
37,Hardcore (Metal)
1166,Hip-Hop
58,Pop
1054,Dance
74,Mittelalter
668,Rock
341,Metal
788,Kunst & Kultur
784,Rock
176,Hardcore (Metal)
429,Rock
663,Metal
802,Rock
467,Electro
739,Schlager
1079,Pop
4,Deutschrock
1115,Rock
586,Electro
445,Ska
471,Folk
391,Hip-Hop
551,Lesung
529,Rock
285,Hardcore (Metal)
1003,Metal
277,Rock
12,Hardcore (Metal)
317,Rock
569,House
570,Pop
1192,Hardcore (Metal)
1208,Metal
627,Folk
357,Rock
848,Electro
1108,Jazz
361,Ska
236,Punk
810,Mittelalter
1198,Hip-Hop
603,Metal
367,Blues
280,Country
902,Klassik
559,Lesung
627,Rock
244,Electro
250,Disco
662,Metal
660,Metal
879,Hip-Hop
552,Rock
486,Metal
914,Blues
142,Punk
149,Schlager
822,Funk
7,Deutschrock
137,Rock
339,Folk
928,Rock
80,Metal
211,Hardcore (Metal)
418,Dance
558,Electro
140,Rock
356,Electro
358,Hardcore (Metal)
687,Punk
367,Pop
475,Blues
501,Pirat
717,Dance
1217,Rock
770,Metal
378,Metal
525,Rockabilly
929,Rock
512,Hardcore (Electro)
403,Hardcore (Metal)
431,Deutschrock
213,Punk
710,Hardcore (Metal)
535,Trance
1051,Metal
310,Rock
647,Deutschrock
757,Electro
836,Metal
973,Rock
13,Gothic
134,Electro
538,Rock
561,Mittelalter
1177,Metal
475,Pop
315,Rock
1041,Hardcore (Electro)
112,Rock
56,Volksmusik
74,Lesung
237,Ska
765,Hip-Hop
834,Rock
981,Rock
301,Electro
6,Gothic
452,Goa
672,Metal
903,Rock
95,Folk
1010,Rock
1184,Metal
545,Blues
645,Trance
8,Hardcore (Metal)
1188,Metal
1196,Deutschrock
1105,Metal
212,Rock
545,Afrika
305,Metal
740,Hip-Hop
566,Electro
367,Sonstiges
653,Hip-Hop
425,Rock
793,Punk
934,Rock
1159,Rock
230,Rock
537,Punk
125,Ska
201,House
755,Electro
685,Metal
424,Hardcore (Metal)
587,Hip-Hop
882,Metal
257,Rock
866,Metal
1062,Metal
101,Deutschrock
148,Reggae
292,Volksmusik
711,Rock
232,Klassik
75,House
114,Hip-Hop
741,Disco
620,Electro
106,Pop
449,Metal
778,Kunst & Kultur
275,Hip-Hop
562,House
1066,Mittelalter
821,Punk
488,Rock
25,Crossover
34,Metal
104,Schlager
512,Irish
601,Metal
20,Irish
1163,Metal
1197,Hardcore (Metal)
792,Hip-Hop
1085,Pop
171,Metal
794,Pop
745,Lesung
270,Metal
250,Dance
116,Rock
551,Rock
815,Irish
256,Rock
233,Pop
667,Rock
209,Metal
164,Metal
741,Sport
318,Mittelalter
990,Rock
652,Electro
1074,Rock
1116,Pop
580,Kunst & Kultur
861,Kunst & Kultur
986,Metal
434,Disco
1211,Lesung
561,Punk
401,Punk
250,Rock
683,Hardcore (Electro)
260,House
568,Dance
1034,Deutschrock
243,Pop
371,Dance
389,Hardcore (Metal)
15,Punk
82,Country
173,Hip-Hop
1200,Rock
283,Folk
142,Folk
3,Electro
559,Rock
41,Hip-Hop
108,Punk
236,Rock
446,Deutschrock
154,Punk
1075,Rock
104,Disco
953,Rock
873,Ska
937,Folk
136,Metal
284,House
458,Metal
1176,Gothic
744,Dance
265,Electro
20,Folk
520,Rock
213,Folk
837,Electro
687,Rock
388,Hip-Hop
815,Folk
906,Metal
121,Folk
763,Metal
156,Reggae
697,Sonstiges
728,Electro
1004,Electro
160,Jazz
853,Rock
590,Hip-Hop
499,Punk
600,House
135,Electro
617,Lesung
742,Electro
1201,Gothic
440,Crossover
774,Rock
74,Rock
956,Punk
877,Metal
1083,Metal
419,Metal
319,Metal
237,Volksmusik
244,Hip-Hop
800,Metal
769,Rock
261,Hardcore (Metal)
388,Crossover
941,Metal
642,Ska
684,Metal
18,Metal
572,Country
471,Pop
290,Ska
537,Rock
741,Rock
519,Deutschrock
75,Disco
63,Rock
615,Kunst & Kultur
98,Pop
1060,Mittelalter
569,Dance
764,Pop
803,Rock
1027,Metal
47,Metal
122,Rock
456,Crossover
854,Rock
241,Lesung
59,Blues
1019,Reggae
1120,Rock
1082,Reggae
76,House
284,Schlager
134,Hip-Hop
489,Pop
1190,Deutschrock
503,Punk
468,House
334,Pop
660,Punk
466,Electro
373,Rock
745,Rock
858,Hip-Hop
1038,Mittelalter
231,Electro
1134,Metal
444,Punk
808,Metal
369,Kunst & Kultur
885,Rock
5,Volksmusik
1137,Metal
524,Crossover
791,Punk
864,Punk
566,Hip-Hop
1204,Metal
989,Metal
95,Blues
104,Rock
393,Pop
401,Rock
546,Sonstiges
236,Hardcore (Metal)
561,Rock
770,Punk
870,Hardcore (Electro)
202,House
922,Pop
15,Rock
689,Rock
441,Electro
1052,Gothic
134,Crossover
1076,Electro
120,Rock
142,Hardcore (Metal)
154,Rock
249,Punk
732,Hip-Hop
845,Folk
1079,Kunst & Kultur
858,Crossover
1178,Metal
1017,Metal
165,Rock
95,Pop
565,Punk
68,House
333,Hip-Hop
541,Jazz
946,Metal
189,Rock
545,Electro
420,Volksmusik
1190,Volksmusik
1171,Punk
11,Klassik
634,Electro
106,Electro
797,Hardcore (Metal)
1207,Metal
414,Electro
617,Rock
939,Rock
999,Sport
201,Dance
460,Rockabilly
167,Punk
499,Rock
549,Hip-Hop
701,Pop
1066,Rock
1085,Electro
38,Trance
882,Punk
980,Country
330,Metal
353,Metal
734,Punk
916,Metal
506,Punk
485,Hip-Hop
1068,Electro
891,Rock
1116,Electro
646,Ska
433,Blues
19,Metal
127,Folk
283,Blues
318,Rock
638,Reggae
872,House
146,Electro
1157,Metal
32,Electro
539,Ska
531,Punk
107,Hardcore (Metal)
571,Hip-Hop
302,Rock
576,Gothic
1012,Gothic
746,Mittelalter
10,Hip-Hop
79,Schlager
248,Rock
461,Rockabilly
241,Rock
283,Pop
260,Dance
213,Blues
542,Comedy
592,Dance
58,Hip-Hop
258,Metal
821,Hardcore (Metal)
564,Metal
486,Folk
359,Deutschrock
742,Hip-Hop
878,Kunst & Kultur
691,Metal
100,Schlager
141,Rock
202,Punk
503,Rock
1117,Pop
607,Electro
69,Electro
1072,Pop
1091,Metal
512,Pop
968,Punk
1040,Rock
1174,Metal
436,Deutschrock
612,Punk
795,House
175,Punk
213,Pop
31,Punk
161,House
251,Jazz
770,Folk
90,Rock
345,Deutschrock
370,Funk
43,Jazz
773,Jazz
784,Electro
714,Blues
10,Crossover
791,Rock
1118,Metal
284,Rock
864,Rock
780,Electro
15,Hardcore (Metal)
1067,Hardcore (Metal)
129,Jazz
300,Afrika
309,Pop
340,Rock
643,Metal
763,Punk
289,Metal
433,Sonstiges
1054,Electro
525,Ska
917,Metal
317,Electro
534,Dance
600,Dance
688,Metal
407,Pop
500,Hip-Hop
657,Ska
589,Metal
249,Rock
200,Gothic
714,Pop
137,Ska
483,Pop
1141,Rock
421,Blues
1184,Folk
574,Rock
221,Irish
512,Sonstiges
706,Rock
764,Electro
381,Pop
621,Pop
9,Metal
800,Punk
817,Crossover
1060,Rock
231,Hip-Hop
1021,Pop
1171,Rock
502,Rock
130,Rock
685,Folk
296,Deutschrock
1097,Rock
876,Comedy
1138,Country
159,Reggae
475,Hip-Hop
113,Punk
202,Irish
613,Pop
167,Rock
888,Metal
1002,Metal
1139,Pop
186,Hardcore (Electro)
1099,Pop
831,Metal
865,Pop
402,Metal
418,Electro
21,Hardcore (Metal)
1048,Metal
979,Metal
439,Rock
310,Electro
734,Rock
717,Electro
506,Rock
868,Rock
977,Hardcore (Metal)
441,Hip-Hop
856,Metal
400,Sonstiges
4,Metal
441,Gothic
582,Metal
1045,Punk
76,Dance
174,Pop
768,Schlager
112,Electro
893,House
602,Punk
221,Folk
683,Pop
955,Kunst & Kultur
913,Rock
1067,Pop
111,Electro
1084,Trance
72,Lesung
539,Volksmusik
637,Latin
531,Rock
1213,Trance
439,Rockabilly
1208,Hardcore (Metal)
78,Metal
526,Jazz
513,Klassik
634,Gothic
934,Electro
1039,Metal
1179,Metal
224,Rock
294,Punk
778,Metal
456,Metal
297,Metal
1018,Dance
202,Dance
716,Trance
719,Deutschrock
775,Metal
931,Metal
1035,Metal
229,Punk
604,Rock
794,Hip-Hop
458,Folk
486,Hardcore (Metal)
812,Rock
1217,Deutschrock
956,Blues
233,Hip-Hop
787,Sonstiges
1116,Hip-Hop
184,Rock
292,Metal
1202,Metal
968,Rock
431,Metal
551,Ska
80,Hardcore (Metal)
68,Dance
546,Kunst & Kultur
1089,Rock
969,Hardcore (Metal)
1199,Deutschrock
175,Rock
966,Schlager
31,Rock
243,Hip-Hop
355,Rock
391,Punk
412,Metal
52,Metal
562,Blues
578,Metal
378,Hardcore (Metal)
146,Gothic
322,Metal
431,Comedy
116,Electro
24,Metal
562,Afrika
762,House
479,Rock
27,Metal
100,Rock
747,Rock
543,Pop
148,Sonstiges
1032,Folk
896,Pop
977,Pop
903,Deutschrock
250,Electro
445,Metal
695,Schlager
115,Rock
840,Metal
632,Metal
1216,Metal
916,Punk
527,Jazz
1032,Rock
1075,Electro
457,Hardcore (Electro)
127,Pop
568,Electro
1184,Hardcore (Metal)
371,Electro
1049,Punk
501,Rock
886,Metal
305,Hardcore (Metal)
760,Hardcore (Metal)
1124,Metal
872,Dance
1084,Hardcore (Electro)
372,Metal
253,Metal
198,Sonstiges
1,Metal
105,Electro
504,Rock
1199,Volksmusik
1022,Pop
623,Rock
712,Rock
872,Rock
113,Rock
1205,Rock
480,Punk
512,Electro
744,Electro
866,Hardcore (Metal)
730,Pop
13,Punk
179,Trance
89,Metal
597,Metal
551,Film
469,Hip-Hop
6,Punk
380,Metal
471,Hip-Hop
911,Ska
814,Hardcore (Electro)
262,Punk
666,Rock
602,Rock
565,Blues
770,Pop
98,Hip-Hop
825,Kunst & Kultur
769,Electro
764,Hip-Hop
1200,Deutschrock
584,Metal
161,Dance
741,Ska
559,Deutschrock
936,Metal
750,Punk
446,Metal
1151,Punk
1009,Electro
263,Rock
426,Rock
158,Rock
1177,Pop
964,Metal
244,House
537,Electro
294,Rock
708,House
752,Rock
170,Pop
553,Trance
555,Rock
114,Punk
461,Sonstiges
334,Hip-Hop
107,Electro
680,Rock
1178,Folk
471,Crossover
126,Reggae
125,Metal
591,Reggae
972,Metal
1092,Trance
1149,Folk
946,Folk
1188,Pop
1165,Metal
1166,Rock
55,Metal
136,Hardcore (Metal)
612,Hardcore (Metal)
421,Electro
98,Crossover
569,Electro
369,Metal
75,Goa
1104,Metal
303,Rock
153,Crossover
1012,Metal
1149,Rock
393,Hip-Hop
661,Dance
922,Hip-Hop
65,Rock
995,Rock
448,Pirat
1096,Metal
132,Metal
763,Hardcore (Metal)
516,House
92,Electro
447,Hip-Hop
1088,Rock
505,Electro
111,Hip-Hop
1070,Volksmusik
1081,House
174,Electro
879,Folk
173,Punk
956,Country
62,Rock
329,Pop
559,Volksmusik
829,Punk
5,Metal
1198,Rock
683,Electro
206,Blues
1032,Hardcore (Metal)
387,Rock
183,Metal
766,Rock
15,Electro
440,Punk
877,Hardcore (Metal)
40,Hardcore (Electro)
846,Rock
897,Blues
1144,Rock
1050,Metal
741,Deutschrock
526,Funk
741,Film
1049,Rock
164,Pop
1112,Rock
225,Volksmusik
242,Metal
893,Dance
205,Rock
388,Punk
674,Metal
1206,Metal
408,Folk
496,Punk
360,House
495,Rock
550,Rock
420,Metal
1201,Punk
13,Rock
595,Punk
598,Sonstiges
938,Punk
46,Mittelalter
745,Film
930,Metal
804,Metal
1095,Rock
788,Folk
1191,Gothic
1190,Comedy
757,Trance
1052,Mittelalter
1042,Punk
473,Hardcore (Metal)
6,Rock
805,Deutschrock
219,Metal
543,Electro
782,Pop
385,Rock
244,Lesung
262,Rock
705,Rock
807,Rock
428,Metal
182,Electro
653,Rock
1137,Hardcore (Metal)
750,Rock
1153,Metal
562,Electro
578,Punk
709,Metal
241,Ska
587,Rock
1151,Rock
335,Electro
762,Dance
642,Metal
1101,Rock
636,Klassik
1053,Rock
583,Punk
639,Rock
114,Rock
905,Deutschrock
290,Metal
512,Hip-Hop
826,Punk
565,Country
275,Rock
753,Hardcore (Metal)
213,Hip-Hop
126,Rock
632,Punk
1216,Punk
1149,Hardcore (Metal)
858,Punk
670,Rock
785,Pop
260,Electro
238,Pop
207,Punk
592,Electro
188,Metal
702,Metal
1211,Volksmusik
39,Rock
438,Metal
269,Metal
819,Metal
340,Ska
867,Rock
1207,Hardcore (Metal)
29,Metal
407,Hip-Hop
737,Metal
104,Volksmusik
214,Metal
1086,Metal
38,Goa
734,Country
799,Rock
714,Hip-Hop
387,Hardcore (Metal)
173,Rock
284,Electro
483,Hip-Hop
1045,Pop
1048,Folk
829,Rock
1094,Electro
1209,Deutschrock
41,Rock
411,Metal
770,Electro
365,Mittelalter
916,Hardcore (Metal)
732,Punk
381,Hip-Hop
440,Rock
839,Metal
210,Ska
697,Metal
1170,Metal
945,Gothic
194,Comedy
771,Metal
249,Electro
1176,Rock
811,Deutschrock
350,Metal
534,Electro
600,Electro
978,Metal
197,Rock
407,Crossover
706,Electro
550,Hardcore (Metal)
388,Rock
241,Film
613,Hip-Hop
397,Rock
1080,Pop
1099,Hip-Hop
467,Rock
671,Metal
865,Hip-Hop
586,Rock
496,Rock
282,Metal
778,Folk
590,Rock
522,Country
925,Deutschrock
452,Trance
220,Hardcore (Electro)
497,Hardcore (Metal)
141,Deutschrock
168,Rock
439,Ska
869,Rock
1201,Rock
708,Dance
258,Hardcore (Metal)
359,Comedy
1004,Trance
256,Pirat
485,Punk
1146,Trance
1168,Rock
1152,Metal
683,Hip-Hop
820,Rockabilly
882,Electro
431,Folk
1067,Hip-Hop
791,Deutschrock
907,Rock
265,Reggae
580,Folk
329,Electro
913,Ska
369,Punk
338,Metal
635,Metal
321,Dance
676,Gothic
1013,Pop
1167,Metal
576,Punk
27,Folk
932,Punk
119,Metal
166,House
516,Dance
76,Electro
1055,Metal
10,Punk
524,Rock
1081,Dance
353,Pop
833,Metal
852,Mittelalter
698,Mittelalter
370,Sonstiges
583,Rock
860,Pop
954,Sport
858,Folk
1210,Rock
17,Rock
826,Rock
1067,Crossover
26,Dance
725,Metal
134,Rock
481,House
909,Pop
692,Deutschrock
20,Pirat
648,Metal
560,Rock
296,Metal
682,Film
889,Sonstiges
604,Electro
626,Electro
327,Metal
1018,Electro
202,Electro
414,House
816,Schlager
616,Trance
543,Hip-Hop
532,Metal
571,Sport
325,Kunst & Kultur
668,Metal
817,Punk
280,Rock
566,Rock
959,Metal
31,Electro
977,Hip-Hop
367,Schlager
734,Deutschrock
1007,Rock
868,Deutschrock
360,Dance
161,Goa
579,Deutschrock
376,Rock
394,Electro
755,Rock
924,Metal
650,Dance
68,Electro
415,Lesung
267,Metal
479,Electro
440,Hardcore (Metal)
545,Funk
634,Mittelalter
85,Rock
500,Punk
699,Rock
337,Mittelalter
732,Rock
346,Punk
856,Hardcore (Metal)
4,Hardcore (Metal)
630,Rock
525,Metal
451,Metal
501,Ska
333,Rock
1181,Metal
914,Punk
326,Metal
792,Blues
884,Pop
287,House
965,Pop
743,House
977,Crossover
677,Metal
281,Metal
871,Metal
719,Metal
1056,Rock
536,Rock
964,Folk
486,Gothic
1039,Hardcore (Metal)
1111,House
595,Hardcore (Metal)
549,Rock
812,Deutschrock
1148,Rock
971,Jazz
297,Hardcore (Metal)
250,Jazz
729,Metal
599,Trance
775,Hardcore (Metal)
872,Electro
71,Deutschrock
607,House
704,Metal
1042,Hardcore (Metal)
3,Rock
1199,Metal
157,Ska
96,Pop
770,Hip-Hop
1005,Rock
1160,Metal
369,Dance
369,Folk
57,Pop
778,Latin
292,Hardcore (Metal)
1202,Hardcore (Metal)
72,Ska
422,Metal
837,Dance
1012,Folk
12,Lesung
1068,Trance
386,House
1199,Comedy
478,Metal
545,Reggae
593,Schlager
147,Folk
42,Metal
268,Rock
571,Rock
576,Rock
58,Dance
515,Kunst & Kultur
545,Lesung
365,Rock
10,Rock
16,Metal
5,Folk
1100,Folk
1212,Deutschrock
737,Punk
720,Rock
1162,Folk
975,Metal
103,Folk
1079,Folk
952,Rock
855,Country
58,Rock
770,Crossover
1033,Deutschrock
742,Rock
1194,Metal
948,Deutschrock
1216,Hardcore (Metal)
752,Electro
45,Metal
411,Punk
555,Electro
1050,Folk
233,Punk
778,Afrika
465,Pop
839,Punk
1221,Metal
56,Pop
570,Rock
886,Hardcore (Metal)
493,Pop
244,Klassik
69,Trance
329,Hip-Hop
640,Rock
984,Metal
1133,Rock
817,Rock
1,Hardcore (Metal)
933,Punk
179,Goa
361,Latin
391,Electro
308,Metal
732,Hardcore (Metal)
432,Metal
367,Dance
118,Electro
780,Trance
822,Jazz
53,Gothic
200,Rock
500,Rock
661,Electro
62,Electro
666,Deutschrock
72,Deutschrock
1054,Trance
221,Gothic
1200,Metal
346,Rock
705,Country
1198,Electro
93,Rock
295,Metal
559,Metal
367,Rock
1182,Gothic
892,Metal
578,Pop
580,Pop
861,Pop
914,Rock
948,Volksmusik
960,Rock
745,Jazz
466,Rock
738,Blues
322,Pop
493,Sonstiges
231,Rock
559,Comedy
625,Metal
860,Electro
266,Pop
1153,Folk
91,Deutschrock
342,Rock
178,Metal
338,Punk
49,Jazz
205,Electro
166,Dance
475,Rock
942,Rock
878,Folk
1187,Trance
458,Gothic
494,Rock
44,Metal
444,Pirat
703,Metal
482,Metal
893,Electro
945,Metal
303,Deutschrock
883,Metal
28,Pop
471,Punk
995,Deutschrock
12,Rock
55,Hardcore (Metal)
481,Dance
1156,Metal
487,Pop
97,Metal
678,Metal
72,Volksmusik
564,Electro
484,Metal
438,Folk
546,Punk
576,Hardcore (Metal)
932,Hardcore (Metal)
217,Metal
327,Punk
1096,Hardcore (Metal)
1119,Metal
132,Hardcore (Metal)
10,Hardcore (Metal)
721,Punk
413,Rock
363,Rock
354,Pop
532,Punk
106,Rock
722,Hip-Hop
572,Rockabilly
877,Gothic
904,Pop
1001,Pop
846,Deutschrock
639,Ska
72,Kunst & Kultur
489,Punk
5,Hardcore (Metal)
912,Metal
587,Electro
235,Dance
884,Electro
810,Metal
593,Rock
358,Rock
924,Punk
183,Hardcore (Metal)
785,Hip-Hop
390,Kunst & Kultur
410,Reggae
126,Ska
591,Ska
686,Punk
114,Electro
610,Schlager
1074,Mittelalter
898,Folk
233,Rock
403,Rock
1006,Rock
1116,Rock
624,Metal
741,Comedy
1135,Rock
895,Metal
710,Rock
32,Dance
91,Kunst & Kultur
1193,Deutschrock
615,Pop
393,Punk
446,Pop
1132,Rock
922,Punk
674,Hardcore (Metal)
287,Dance
1036,Metal
743,Dance
146,Rock
13,Deutschrock
369,Blues
447,Punk
512,House
542,Volksmusik
96,Electro
631,Metal
39,Electro
1144,Metal
933,Rock
57,Electro
261,Punk
138,Metal
142,Mittelalter
109,Punk
1211,Metal
6,Deutschrock
406,Rock
1111,Dance
8,Rock
125,Pop
745,Comedy
805,Metal
147,Blues
859,Metal
799,Electro
890,Rock
857,Metal
396,Pop
1041,House
749,Rock
369,Pop
41,Electro
937,Mittelalter
921,Punk
221,Pirat
713,Rock
226,Kunst & Kultur
750,Deutschrock
20,Mittelalter
507,Rock
820,Ska
644,Pop
147,Pop
386,Dance
1009,House
701,Punk
815,Mittelalter
919,Punk
478,Punk
568,Trance
181,Metal
163,Punk
905,Metal
709,Hardcore (Metal)
498,Hip-Hop
60,Lesung
245,Metal
388,Electro
686,Irish
1100,Pop
1197,Rock
340,Jazz
725,Folk
290,Hardcore (Metal)
493,Electro
1191,Punk
97,House
156,Metal
1063,Rock
982,Pirat
471,Rock
778,Electro
128,Rock
351,Metal
993,Gothic
169,Metal
1058,Punk
399,Jazz
730,Metal
708,Electro
98,Rock
236,Lesung
764,Rock
353,Hip-Hop
608,Trance
367,Klassik
951,Pop
1209,Metal
477,Rock
153,Rock
457,Hip-Hop
737,Hardcore (Metal)
1086,Hardcore (Metal)
851,Punk
556,Metal
1024,Metal
804,Pop
14,Metal
489,Rock
861,Electro
339,Rock
404,Pop
208,Rock
334,Rock
321,Electro
374,Pop
512,Punk
213,Reggae
322,Electro
745,Funk
811,Metal
894,House
1008,Rock
266,Electro
1090,Punk
512,Lesung
736,Metal
686,Rock
20,Lesung
388,Deutschrock
516,Electro
839,Hardcore (Metal)
847,Metal
59,Rock
771,Hardcore (Metal)
922,Dance
301,Ska
1031,Rock
1081,Electro
677,Folk
881,Punk
925,Metal
696,Volksmusik
281,Dance
393,Rock
223,Metal
858,Electro
869,Deutschrock
1201,Deutschrock
328,Rock
933,Hardcore (Metal)
564,Gothic
26,Electro
409,Metal
407,Punk
447,Rock
591,Kunst & Kultur
838,Punk
1014,Deutschrock
111,Rock
28,Electro
361,Electro
474,Metal
610,Rock
961,Punk
596,Metal
788,Gothic
878,Pop
255,Metal
261,Rock
483,Punk
899,Punk
1091,Gothic
109,Rock
228,Rock
545,Klassik
1199,Folk
56,Kunst & Kultur
95,Rock
398,Rock
381,Punk
621,Punk
845,Mittelalter
107,Punk
823,Punk
628,Pop
155,Metal
732,Electro
360,Electro
1001,Electro
163,Folk
110,Rock
190,Folk
776,Reggae
185,Rock
269,Pop
650,Electro
524,Deutschrock
521,Metal
338,Hardcore (Metal)
818,Metal
333,Electro
697,Blues
745,Reggae
701,Rock
919,Rock
143,Hardcore (Electro)
60,Rock
379,Rock
865,Punk
163,Rock
1210,Deutschrock
190,Rock
733,Metal
975,Folk
1064,Metal
134,Deutschrock
199,Mittelalter
96,Hip-Hop
692,Metal
833,Hardcore (Metal)
1194,Folk
174,Punk
615,Electro
581,Metal
723,Metal
282,Blues
423,Dance
594,Pop
1126,Metal
844,Deutschrock
1191,Rock
1016,Metal
725,Hardcore (Metal)
562,Funk
1221,Folk
663,Mittelalter
327,Hardcore (Metal)
1125,Metal
1038,Metal
624,Punk
700,Rock
579,Metal
433,Rock
283,Rock
142,Rock
201,Trance
348,Deutschrock
655,House
865,Sport
983,Metal
715,Hip-Hop
1098,Metal
1172,Metal
369,Electro
1037,Kunst & Kultur
1214,Deutschrock
512,Dance
86,Deutschrock
4,Gothic
92,Sport
870,House
505,Sport
603,Mittelalter
1012,Electro
1130,Rock
293,Metal
533,Metal
343,Electro
1175,Rock
830,Metal
336,Rock
10,Electro
367,Country
690,House
686,Hardcore (Metal)
94,Rock
465,Hip-Hop
512,Rock
56,Hip-Hop
20,Rock
1072,Rock
1164,Rock
797,Rock
659,House
309,Folk
213,Rock
534,House
914,Country
998,Metal
1090,Rock
384,Pop
121,Rock
451,Hardcore (Metal)
1056,Deutschrock
922,Hardcore (Metal)
778,Hip-Hop
881,Rock
309,Rock
652,Deutschrock
144,Metal
340,Funk
856,Crossover
129,Gothic
296,Blues
460,Punk
1009,Dance
570,Electro
98,Afrika
225,Folk
71,Metal
260,Trance
407,Rock
109,Hardcore (Metal)
547,Metal
562,Reggae
1103,Pop
3,Deutschrock
592,Trance
611,Metal
621,Folk
967,Metal
306,Metal
714,Rock
400,Rock
899,Rock
483,Rock
729,Hardcore (Metal)
431,Gothic
562,Lesung
793,Rock
304,Metal
665,Metal
580,Hip-Hop
861,Hip-Hop
78,Crossover
951,Electro
107,Rock
1160,Hardcore (Metal)
322,Hip-Hop
1094,Trance
500,Electro
778,Crossover
156,Punk
1021,Rock
266,Hip-Hop
268,Deutschrock
1154,Metal
27,Gothic
264,Kunst & Kultur
422,Hardcore (Metal)
721,Pop
365,Deutschrock
367,Electro
478,Hardcore (Metal)
1212,Metal
509,Metal
806,House
1140,Rock
554,Punk
374,Electro
730,Punk
