locationId,latitude,longitude,locationName,countryCode,zipcode,city,street,street_number
1,53.548038,10.0176986,Hamburger Großmarkt,DE,20097,Hamburg,Adenauerallee,10
2,52.1310371,8.6670744,Parkplatz X Herford Diskothek,DE,32051,Herford,Bünder Straße,82
3,51.237716,12.4831199,Störmthaler See,DE,04463,Großpösna,Neue Straße,\N
4,52.512577,11.4282855,Erlebnisbad Gardelegen,DE,39638,Gardelegen,Magdeburger Landstraße,20A
5,54.0226106,9.3799516,\N,DE,25596,Wacken,Buchenweg,4
6,51.7203214,11.2383073,Flugplatz Ballenstedt,DE,06507,Ballenstedt,Wasserstraße,6
7,51.5907385,12.4633051,Flugplatz Roitzschjora,DE,04509,Löbnitz,Delitzscher Straße,14
8,52.6657889,8.7965951,\N,DE,27232,Sulingen,Vorwerk,12
9,53.2329263,10.2155627,Eventpark Luhmühlen,DE,21394,Westergellersen,Westergellerser Heide,\N
10,49.7681386,12.1798026,O'Schnitt Halle Wurz,DE,92715,Püchersreuth,Lamplmühlstraße,29
11,48.5629444,11.2322974,SSV Sportgelände,DE,86529,Schrobenhausen,\N,\N
12,51.8704306,4.477135,Zuiderpark,NL,3085 BJ,Rotterdam,Lakerveld,39
13,50.1658782,12.1279241,Goldberg,DE,95100,Selb,Wunsiedler Straße,23
14,50.1658782,12.1279241,Goldberg in Selb,DE,95100,Selb,Wunsiedler Straße,23
15,48.8700141,9.4001909,Hermann Schwab Halle,DE,71364,Winnenden,Albertviller Straße,11
16,51.4961111,7.4654343,Westfalenhallen Dortmund,DE,44139,Dortmund,Joseph-Scherer-Straße,\N
17,54.0976778,13.0545996,Hexenkessel Grimmen (Stock Car Strecke),DE,18507,Grimmen,Südliche Randstraße,\N
18,50.966436,7.0099492,Club Volta,DE,51063,Köln,Schanzenstraße,6-20
19,51.273033,6.2087523,Bongert Alst,DE,41379,Brüggen,Alst,122
20,52.7969951,8.4490767,Hartensbergsee,DE,49424,Goldenstedt,Fasanenkamp,2
21,52.7969951,8.4490767,\N,DE,49424,Goldenstedt,Fasanenkamp,2
22,47.9370459,10.322277,\N,DE,87724,Ottobeuren,Guggenberg,23
23,51.4917604,7.4744044,Westfalenpark,DE,44139,Dortmund,An der Buschmühle,3
24,47.5858278,7.6072457,\N,DE,79576,Weil am Rhein,Basler Straße,45
25,49.53932,10.83563,\N,DE,91074,Herzogenaurach,Puschendorfer Straße,2
26,49.92921,8.3970801,Neben dem Treburer Freibad,DE,65468,Trebur,Astheimer Straße,88
27,51.0883775,4.3784409,Provinciaal Recreatiedomein De Schorre,BE,2850,Boom,Schommelei,1
28,47.5610063,7.5935539,Volkshaus Basel,CH,4058,Basel,Rebgasse,14
29,51.4417571,5.4832323,EFFENAAR,NL,5611 CK,Eindhoven,Dommelstraat,2
30,51.4417571,5.4832323,De Effenaar,NL,5611 CK,Eindhoven,Dommelstraat,2
31,49.286387,8.6870156,R'n'P Wiesloch,DE,69168,Wiesloch,Am Schwimmbad,14
32,49.7616213,10.463781,Eventzentrum Geiselwind,DE,96160,Geiselwind,\N,\N
33,53.6721514,10.2344544,JuKI 42,DE,22926,Ahrensburg,An der Reitbahn,2
34,53.6721514,10.2344544,Juki 42,DE,22926,Ahrensburg,An der Reitbahn,2
35,52.4409067,8.4434751,\N,DE,32351,Stemwede,Bergstraße,31
36,52.3621516,4.8838064,Paradiso,NL,1017 SG,Amsterdam,Weteringschans,8
37,51.495843,7.450991,Westfalenhallen Dortmund,DE,44139,Dortmund,Rheinlanddamm,202
38,33.6764137,-116.236667,Empire Polo Club,US,92201,Indio,Avenue 51,81800
39,50.1482778,11.0579711,Stadthalle Lichtenfels,DE,96215,Lichtenfels,Schützenplatz,10
40,50.1482778,11.0579711,Stadthalle in Lichtenfels,DE,96215,Lichtenfels,Schützenplatz,10
41,49.2373226,6.9990459,\N,DE,66111,Saarbrücken,Försterstraße,38
42,52.5099216,13.4904284,Rockhaus,DE,10365,Berlin,Buchberger Straße,6
43,48.87001,9.40007,Hermann Schwab Halle,DE,71364,Winnenden,Albertviller Straße,11
44,50.5914238,11.7330571,Ferienland Crispendorf,DE,07924,Volkmannsdorf,Ortsstraße,62
45,49.8128056,10.9838454,Jahnhalle Hirschaid,DE,96114,Hirschaid,Georg-Kügel-Ring,1
46,39.5674685,2.6511914,Mein Schiff 6,ES,07001,Palma,Carrer de Santa Clara,6
47,52.3672679,9.7374231,Trammplatz (neues Rathaus),DE,30159,Hannover,Trammplatz,2
48,53.5423712,10.02268659,Hamburger Großmarkt,DE,20097,Hamburg,Auf der Brandshofer Schleuse,4
49,47.694897,8.717594,Halle Laaggut,CH,8239,Dörflingen,\N,\N
50,50.9821987,10.9827756,Club From Hell Erfurt,DE,99192,Erfurt,Gamstädter Landstraße,24
51,52.1212085,4.9855936,Kasteel de Haar,NL,3455 RR,Utrecht,Kasteellaan,3
52,52.3997691,13.0665558,Potsdamer Zentrum,DE,14467,Potsdam,Charlottenstraße,70
53,51.2949626,14.5064343,Veranstaltungsgelände Commerau,DE,02694,Großdubrau,Zur Schule,10
54,50.1049203,14.431673,VÝSTAVIŠTĚ PRAHA HOLEŠOVICE,CZ,170 00,\N,Výstaviště,67
55,48.2591862,16.3771833,Donauinsel,AT,1210,Wien,Donauinsel,1
56,53.5492145,9.9642575,Spielbudenplatz,DE,20359,Hamburg,Spielbudenplatz,21
57,47.2276142,15.7301953,Kulmarena,AT,8182,Puch bei Weiz,Puch,99
58,52.1438407,11.7316703,Heyrothsberger Park / Bunker,DE,39175,Biederitz,Parkweg,1B
59,54.1381902,11.6758275,Zur Ranch,DE,18230,Bastorf,Zum Strande,3
60,51.8702324,4.477078,Zuiderpark,NL,3085 BJ,Rotterdam,Lakerveld,53
61,48.623027,12.3369931,Harthalle,DE,84109,Wörth an der Isar,Landshuter Straße,29
62,47.4514111,11.9343458,Gegenüber Erdbeerland,AT,6241,Radfeld,Maukenbach,18a
63,52.5206358,13.227462,Olympiastadion & Olympiapark Berlin,DE,14053,Berlin,\N,\N
64,50.9660738,7.0150564,Club Volta,DE,51063,Köln,Schanzenstraße,6-20
65,50.80414,11.61189,Leuchtenburg,DE,07768,Seitenroda,Dorfstraße,100
66,52.7969592,8.4490753,Hartensbergsee,DE,49424,Goldenstedt,Fasanenkamp,2
67,52.7969592,8.4490753,\N,DE,49424,Goldenstedt,Fasanenkamp,2
68,50.8532109,11.2061856,Niederburg Kranichfeld,DE,99448,Kranichfeld,Schloßgasse,18
69,51.948042,7.6408045,Jovel,DE,48155,Münster,Albersloher Weg,46
70,51.295189,15.019503,Geheime Welt von Turisede - Kulturinsel Einsiedel,DE,02829,Neißeaue,Kulturinsel Einsiedel,1
71,51.416573,9.3858738,Kassel Airport - Terminal,DE,34379,Calden,Fieseler-Storch-Straße,40
72,51.4042192,11.3881832,Flugplatz Allstedt,DE,06542,Allstedt,Breite Straße,9
73,50.7108549,7.1407372,Freizeitpark Rheinaue,DE,53175,Bonn,Ludwig-Erhard-Allee,20
74,50.4425521,7.9635915,\N,DE,56414,Obererbach,Hauptstraße,1
75,53.5511779,9.9641759,\N,DE,20359,Hamburg,Simon-von-Utrecht-Straße,23
76,50.9884137,8.7386821,"Festplatz Ernsthausen ""Vogelwiese""",DE,35099,Burgwald,Eichenstraße,12
77,49.5208771,6.7378598,Eventgelände Losheim,DE,66679,Losheim am See,Zum Stausee,199
78,51.8858791,8.6783529,Safariland Stukenbrock,DE,33758,Schloß Holte-Stukenbrock,Mittweg,16
79,53.8676461,10.6891338,Altstadt Lübeck,DE,23552,Lübeck,Dr.-Julius-Leber-Straße,28
80,53.33609,13.05517,Mecklenburgischen Seenplatte,DE,17235,Neustrelitz,Bürgerseeweg,27
81,47.80533,11.88103,Reitanlage am Irschenberg,DE,83737,Irschenberg,Schwaig,9
82,52.35903,12.74838,Waldbühne Damsdorf,DE,14797,Kloster Lehnin,Alte Lindenstraße,6
83,51.4834514,6.8665368,Turbinenhalle,DE,46047,Oberhausen,Im Lipperfeld,23
84,51.4834514,6.8665368,Turbinenhalle Oberhausen,DE,46047,Oberhausen,Im Lipperfeld,23
85,48.2904159,11.7205915,Hausler Hof,DE,85399,Hallbergmoos,Garchinger Weg,72
86,53.8674795,-1.3748863,Bramham Park,GB,LS23 6LS,Bramham,South Approach,\N
87,53.5971066,9.4802717,Bürgerpark Stade,DE,21680,Stade,Am Güterbahnhof,2C
88,51.6891698,7.7665946,Kulturrevier Radbod,DE,59075,Hamm,An den Fördertürmen,4
89,51.4640404,-0.9858298,\N,GB,RG1 8EQ,Reading,Richfield Avenue,12
90,49.8423554,8.1160636,\N,DE,55286,Wörrstadt,Altmünsterstraße,7
91,54.5117827,9.5410034,Königswiesen,DE,24837,Schleswig,Schloßinsel,1
92,48.17894,10.75682,\N,DE,86830,Schwabmünchen,Jahnstraße,1
93,53.153707,8.2095955,Oldenburger Altstadt,DE,26121,Oldenburg,Von-Berger-Straße,5
94,53.153707,8.2095955,Freizeitstätte Bürgerfelde,DE,26121,Oldenburg,Von-Berger-Straße,5
95,52.5384519,13.4096184,Wegen Corona nur online,DE,10435,Berlin,Kastanienallee,91
96,53.8477706,10.1747268,\N,DE,23845,Seth,L232,67
97,52.9657717,10.5458924,ALMASED Arena,DE,29525,Uelzen,Albrecht-Thaer-Straße,\N
98,52.5921811,10.8777277,Altes Haus,DE,38474,Tülau,Salzwedeler Straße,15
99,52.0913698,7.6059547,Emsbeach,DE,48268,Greven,Am Hallenbad,2
100,50.2238827,12.1950127,Auf dem Hainberg,CZ,352 01,Aš,Havlíčkova,7
101,51.0149516,11.5013397,Festwiese Herressener Promenade,DE,99510,Apolda,Wiesenstraße,1
102,47.8750726,11.9906903,ehem. US-Kaserne Bad Aibling,DE,83043,Bad Aibling,Grassingerstraße,52
103,52.4350349,5.7605534,Evenemententerrein Walibi,NL,8256 RJ,Biddinghuizen,Spijkweg,30
104,51.9089785,8.6541033,Auf der Wiese,DE,33758,Schloß Holte-Stukenbrock,Trapphofstraße,18B
105,53.87258,11.30482,Forsthof Jamel,DE,23968,Gägelow,Forststraße,13
106,50.2381847,8.7552803,Am Selzerbrunnen,DE,61184,Karben,Brunnenstraße,2
107,48.8921009,9.3839245,Sportgelände Leutenbach,DE,71397,Leutenbach,Jahnstraße,20
108,50.5850486,8.6741668,\N,DE,35390,Gießen,Neuenweg,2
109,53.5013813,9.9839119,Wilhelmsburg am Reiherstieg,DE,21107,Hamburg,Schlengendeich,12
110,46.3157745,7.7419441,Festivalgelände am Rotten,CH,3945,Gampel-Bratsch,Feldstrasse,9
111,48.1800458,15.6233804,Green Park,AT,3100,Sankt Pölten,Kelsengasse,9
112,54.2694409,12.4446294,Ehemaliger Militärflughafen Pütnitz,DE,18311,Ribnitz-Damgarten,Flugplatzallee,3
113,50.9528031,5.3490447,\N,BE,3500,Hasselt,\N,\N
114,49.55137,9.72955,Tauberfrankenhalle,DE,97922,Lauda-Königshofen,Hauptstraße,1
115,48.4844561,9.8946464,Lerchenberg,DE,89160,Dornstadt,Eschenlauh,5
116,50.436848,7.3533422,\N,DE,56626,Andernach,\N,\N
117,50.9955086,10.1723046,Burgruine Brandenburg,DE,99834,Gerstungen,K505,\N
118,54.4895786,9.5548396,\N,DE,24866,Busdorf,B77,\N
119,47.6148224,15.750904,\N,AT,8684,Spital am Semmering,\N,\N
120,53.222968,8.54099,Gewerbepark Weser-Geest,DE,28790,Schwanewede,An der Kaserne,121
121,44.5561811,14.8854242,Zrce Beach,HR,53291,Novalja,Istarska ulica,54
122,50.4572777,8.7331454,Sportgelände Gambach,DE,35516,Münzenberg,Butzbacher Straße,3
123,53.5358158,9.8746556,Gorch-Fock-Park,DE,21129,Hamburg,Külpersweg,44
124,51.1534944,14.9761016,RABRYKA - alte Industriebrache Hefefabrik,DE,02826,Görlitz,Bautzener Straße,32
125,50.7375257,7.6756708,Heinzelmännchen Hofcafe,DE,57577,Seelbach bei Hamm (Sieg),Hammer Straße,51
126,60.1851031,24.9686038,\N,FI,00540,Helsinki,Parrukatu,2
127,51.4619256,7.0141754,Turock,DE,45127,Essen,L452,21
128,50.0069268,8.2817775,Reduit (Mainz-Kastel),DE,55252,Wiesbaden,Rheinufer,1
129,47.0762613,15.4380671,Schlossberg Graz,AT,8010,Graz,\N,\N
130,47.0762613,15.4380671,Schlossberg Graz - Kasemattenbühne,AT,8010,Graz,\N,\N
131,53.5711338,9.69336,\N,DE,22880,Wedel,Strandbaddamm,18
132,47.702885,-2.651779,Site de Kerboulard,FR,56250,Saint-Nolff,Place Saint-Mayeul,1
133,51.5765988,12.4914583,Flugplatz Roitzschjora,DE,04509,Löbnitz,\N,\N
134,54.3540104,12.6324985,Freilichtbühne Barth,DE,18356,Barth,\N,\N
135,46.8806009,7.0427075,Römische Arenen,CH,1580,Avenches,Avenue Jomini,2
136,49.0765217,10.3166484,\N,DE,91550,Dinkelsbühl,Crailsheimer Straße,6C
137,52.12855,7.69004,Am Flughafen Münster/Osnabrück,DE,48268,Greven,Joan-Joseph-Fiege-Straße,1
138,51.58442,7.30399,Waldbühne,DE,44579,Castrop-Rauxel,Wartburgstraße,115
139,49.9463339,8.9536557,Sickenhöfer See,DE,64832,Babenhausen,Hardtweg,\N
140,52.1764986,9.951205,Flugplatz Drispenstedt,DE,31137,Hildesheim,Am Flugplatz,26
141,46.9211869,15.3990018,SunnyDays Festival Gelände,AT,8142,Dietersdorf,Dietersdorf,7
142,49.5343819,8.9190715,Alter Sportplatz Finkenbach,DE,64757,Oberzent,Beerfelder Straße,6
143,52.1307253,7.692915,Flughafen Münster Osnabrück,DE,48268,Greven,Airportallee,1
144,50.6961543,7.4127581,Taftahü Oberscheid e.V.,DE,53567,Buchholz,Bonner Straße,21
145,53.3618647,11.6613359,\N,DE,19306,Blievenstorf,L081,10
146,49.07377,8.40932,\N,DE,76344,Eggenstein-Leopoldshafen,Sportplatzweg,13
147,52.9581562,12.0303663,Plattenburg,DE,19339,Plattenburg,Auf der Burg,1
148,54.6676173,9.805205,\N,DE,24392,Wagersrott,Pommerholm,3
149,50.815474,3.2718398,\N,BE,8500,Kortrijk,\N,\N
150,47.75941,10.98882,Sportgelände Böbing,DE,82389,Böbing,Thalmühlweg,22
151,51.5033509,6.8780083,OLGA-Park,DE,46117,Oberhausen,Vestische Straße,45
152,47.1286779,16.4674681,Festivalgelände Bildein,AT,7521,Unterbildein,Florianigasse,1
153,50.0461912,7.8040248,Sportplatz,DE,65391,Lorch,Schwalbacher Straße,25
154,47.7243575,9.406025,Innenstadt Markdorf,DE,88677,Markdorf,Möggenweilerstraße,99
155,56.4043603,43.7134852,\N,RU,606420,Bolshoe Kozino,Komsomol'skaya Ulitsa,14/1
156,53.2218059,9.0894591,Tarmstedter Ausstellungsgelände,DE,27412,Tarmstedt,Wendohweg,11
157,52.65513,9.63487,\N,DE,29690,Schwarmstedt,Oberhäuser Weg,5
158,49.46546,8.96249,Innenstadt,DE,69412,Eberbach,Gammelsbacher Straße,2
159,38.6299251,-0.8550194,\N,ES,03400,Villena,Carretera Biar,1
160,50.5080785,11.7219682,\N,DE,07929,Saalburg-Ebersdorf,Wetteraweg,2
161,52.22086,8.09708,\N,DE,49124,Georgsmarienhütte,Bielefelder Straße,16
162,51.90849,9.7758101,\N,DE,31073,Delligsen,Bornemannshausen,4
163,51.2642232,10.6320535,Flugplatz Obermehler,DE,99996,Nottertal-Heilinger Höhen,Am Flugplatz,3
164,48.2614811,8.8471771,Messegelände Balingen,DE,72336,Balingen,Auf Stetten,1
165,52.7362325,-1.6917778,Catton Park,GB,DE12 8LN,Catton Hall,\N,\N
166,49.3187678,6.8982264,Sauwasen,DE,66346,Püttlingen,Saarlouiser Straße,57
167,49.3794948,10.1858968,Eiswiese,DE,91541,Rothenburg ob der Tauber,Mannstraße,7
168,47.551944,19.0546592,Óbuda Insel,HU,1033,Budapest,Május 9. park,\N
169,51.1895847,10.0585752,\N,DE,37269,Eschwege,Mangelgasse,19
170,50.3502652,15.9373258,Festung Josefov,CZ,551 02,Jaroměř,\N,\N
171,60.6068349,15.6362385,\N,SE,791 30,Falun,Bergsskolegränd,8A
172,47.8089447,10.8986484,Volksfestplatz,DE,86956,Schongau,Lechuferstraße,2
173,49.35678,9.39899,"Hergbstbachtalarena, Möckmühl-Korb",DE,74219,Möckmühl,Raiffeisenweg,10
174,49.9003299,8.6972814,Schlosspark Kranichstein,DE,64289,Darmstadt,Kranichsteiner Straße,261
175,51.298632,7.354719,Haus Ennepetal,DE,58256,Ennepetal,Gasstraße,10
176,49.0017796,8.4010219,Schwarzwaldhalle,DE,76137,Karlsruhe,Festplatz,5
177,51.4826915,6.8647288,Kulttempel Oberhausen,DE,46049,Oberhausen,Mülheimer Straße,24
178,49.4691724,8.5229291,Maimarkthalle Mannheim,DE,68163,Mannheim,Xaver-Fuhr-Straße,101
179,51.5345284,9.9342312,Zentralmensa Göttingen,DE,37073,Göttingen,Prinzenstraße,12
180,49.7684102,10.4707973,Eventzentrum Geiselwind,DE,96160,Geiselwind,Scheinfelder Straße,15
181,54.312055,10.803337,Ferienpark Weissenhäuser Strand,DE,23758,Wangels,Seestraße,1A
182,51.5203927,8.6926573,Schützenhalle,DE,33181,Bad Wünnenberg,Schützenstraße,16
183,51.4958156,7.454272,Westfalenhalle Dortmund,DE,44139,Dortmund,Rheinlanddamm,200
184,51.4958156,7.454272,Westfalenhalle,DE,44139,Dortmund,Rheinlanddamm,200
185,53.14093,8.2123201,Amadeus Oldenburg,DE,26122,Oldenburg,Mottenstraße,21
186,50.934707,6.9759562,\N,DE,50679,Köln,Helenenwallstraße,11
187,48.1828037,11.2528968,Marthabräuhalle,DE,82256,Fürstenfeldbruck,Augsburger Straße,41
188,48.2889276,11.5828683,Jugendkulturhaus Gleis 1,DE,85716,Unterschleißheim,Hollerner Weg,1
189,51.7135376,8.7350209,Kulturwerkstatt Paderborn,DE,33102,Paderborn,Bahnhofstraße,64
190,53.255679,11.3083719,\N,DE,19294,Grebs-Niendorf,Am Krullgraben,5
191,52.1007142,9.356236,Rattenfänger Halle,DE,31785,Hameln,Mühlenstraße,17
192,53.13158,9.3539001,Flugplatz Rotenburg (Wümme),DE,27356,Rotenburg (Wümme),Zum Flugplatz,44
193,49.52071,7.15447,BoBs Freiland,DE,66640,Namborn,Herrenwald,2
194,53.5383165,13.2606839,RWN-Gelände,DE,17033,Neubrandenburg,Nemerower Straße,4
195,48.1392544,9.4467961,Altheimer Open-Air Gelände,DE,88499,Altheim,Vogelsangweg,37
196,49.6093009,8.965371,\N,DE,64711,Erbach,B460,\N
197,50.0167501,12.157061,\N,DE,95615,Marktredwitz,Weidersberg,5
198,48.4640734,8.916337,\N,DE,72108,Rottenburg am Neckar,L370,\N
199,50.8569371,12.4238729,Gößnitz Open Air Gelände,DE,04639,Ponitz,Gößnitzer Straße,5
200,52.755617,13.0441417,\N,DE,16766,Kremmen,Oranienburger Weg,2
201,53.44697,8.11159,Kurhaus Dangast Strand,DE,26316,Varel,An der Rennweide,46
202,52.3761274,9.7104123,Faustwiese,DE,30451,Hannover,Zur Bettfedernfabrik,3
203,39.3525945,3.2000424,Iberostar Club Cala Barca,ES,07691,Santanyí,Carrer de la Barca Trencada,24
204,48.3883456,10.8876427,Ballonfabrik Augusburg,DE,86153,Augsburg,Austraße,27
205,50.9247806,6.9781911,Essigfabrik,DE,50679,Köln,Siegburger Straße,110
206,51.4685293,6.1848627,Kasteeltuinen Arcen,NL,5944 BE,Arcen,Lingsforterweg,26
207,53.413221,7.204444,Live Music Center Emden,DE,26759,Hinte,Gewerbestraße,13
208,53.5494588,10.0067927,Markthalle Hamburg,DE,20095,Hamburg,Klosterwall,11
209,52.4546411,13.3818501,ufaFabrik Berlin,DE,12105,Berlin,Viktoriastraße,10
210,51.2879022,6.8264211,Grüner See,DE,40880,Ratingen,Am Grünen See,16
211,51.629882,14.329353,Buckwitzhof bei Spremberg,DE,03130,Spremberg,Klein Buckow,1
212,51.629882,14.329353,Buckwitzhof,DE,03130,Spremberg,Klein Buckow,1
213,51.7450086,10.6875433,\N,DE,38875,Elend,Hauptstraße,11
214,51.7486896,14.3515127,Spreeauenpark,DE,03042,Cottbus,Kiekebuscher Allee,2
215,47.4238593,9.678939,\N,AT,6890,Lustenau,Am Neuner,2
216,49.89593,11.32363,\N,DE,95515,Plankenfels,Scherleithen,5
217,48.2940404,11.6269369,Freizeitgelände Eching,DE,85386,Eching,Garchinger Straße,46
218,52.59979,8.3883599,Bürgerpark,DE,49356,Diepholz,Lüdersbusch,2
219,50.041989,7.4320967,Raketenbasis Pydna / Kastellaun,DE,56288,Hasselbach,L225,\N
220,46.1395456,13.7460923,\N,SI,5216,Most na Soči,Tolminski Lom,\N
221,47.6489633,7.8278865,Sengelenwäldchen,DE,79650,Schopfheim,Wehrer Straße,32
222,50.9460077,6.9730164,Tanzbrunnen Köln,DE,50679,Köln,Rheinparkweg,1
223,49.0077471,8.3562643,Günter-Klotz Anlage,DE,76185,Karlsruhe,Durmersheimer Straße,6A
224,52.29289,9.93389,Hannoversches Straßenbahn-Museum e.V.,DE,31319,Sehnde,Hohenfelser Straße,16
225,50.5690459,10.499153,\N,DE,98530,Rohr,Unterriedmühle,4
226,51.4617035,7.0138425,Viehofer Platz,DE,45127,Essen,Viehofer Platz,1
227,53.2687196,8.7903509,Festivalgelände,DE,27711,Osterholz-Scharmbeck,Heimelberg,15
228,50.1050746,8.7673831,Diverse Location,DE,63065,Offenbach am Main,Großer Biergrund,15
229,50.2536652,10.280998,Am alten Sportplatz Gock,DE,97702,Münnerstadt,St2282,24
230,47.4372428,8.3875099,Hüttikerberg,CH,8115,Hüttikon,Oetwilerstrasse,81
231,54.5210367,9.4724077,\N,DE,24850,Schuby,Nordring,6
232,52.2111514,11.6286233,Iron Cruise,DE,39179,Barleben,Buschweg,2
233,52.2111514,11.6286233,Motorranch Barleben,DE,39179,Barleben,Buschweg,2
234,52.1275036,11.6369989,Kloster Unser Lieben Frauen,DE,39104,Magdeburg,Regierungsstraße,4
235,52.293446,14.4889278,\N,DE,15236,Frankfurt an der Oder,\N,\N
236,50.01708,6.98172,\N,DE,54538,Bausendorf,Zur Riez,1
237,46.707833,9.1678025,\N,CH,7145,Lumnezia,Miedra,47A
238,53.8560812,9.7026788,\N,DE,25364,Brande-Hörnerkirchen,Lindenstraße,11
239,49.6322995,6.8176014,Festivalwiese an der L143 / Am Herrenmarkt,DE,54427,Kell am See,Am Herrenmarkt,9
240,53.9683771,9.6193117,Flugplatz Itzehoe/Hungriger Wolf,DE,25551,Hohenlockstedt,Finnische Allee,18
241,50.9635794,10.0671708,Festwiese der Brandenburg,DE,99834,Gerstungen,Wilhelmstraße,67
242,49.4945178,11.0778282,Flughafen Nürnberg,DE,90411,Nürnberg,Flughafenstraße,100
243,48.1452959,11.5650136,Königsplatz,DE,80333,München,Konigsplatz,1
244,50.3603398,7.9019914,\N,DE,\N,Holzappel,B417,\N
245,48.2223974,8.351483,Open Air Gelände Trombachhöhe,DE,78144,Lauterbach,Trombach,141
246,52.6702671,9.9114181,\N,DE,29308,Winsen (Aller),Oheweg,25
247,51.1993556,13.3021066,\N,DE,01623,Lommatzsch,Promenadenweg,1
248,53.9002301,9.990344,Flugplatz Hartenholm,DE,24640,Hasenmoor,Dorfstraße,32
249,51.9961657,12.975294,Flugplatz Altes Lager - Niedergörsdorf,DE,14913,Niedergörsdorf,\N,\N
250,53.61825,11.4157299,Freilichtbühne Schlossgarten,DE,19053,Schwerin,Johannes-Stelling-Straße,10
251,52.3666969,4.8945398,Haarlem,NL,1017 CL,Amsterdam,Reguliersbreestraat,23
252,52.474024,13.6157298,"FSC Blau-Weiß, Mahlsdorf/Waldesruh",DE,15366,Hoppegarten,Waldesruher Straße,40
253,48.847647,2.208115,Parc de Saint-Cloud,FR,92210,Saint-Cloud,Place de l'Église,5
254,52.9665962,10.54625,ALMASED Arena,DE,29525,Uelzen,Wullhop,5
255,51.9032339,8.6288738,Auf der Wiese,DE,33758,Schloß Holte-Stukenbrock,Am Hallenbad,7
256,52.5918634,10.8751182,Altes Haus,DE,38474,Tülau,Salzwedeler Straße,30
257,51.4640645,-0.9856187,\N,GB,RG1 8EQ,Reading,Richfield Avenue,12
258,54.5223028,9.5661514,Königswiesen,DE,24837,Schleswig,Polierteich,26
259,50.5794244,11.70194,\N,DE,07924,Schleiz,Ferienland,2
260,62.5988023,29.7369509,\N,FI,80110,Joensuu,Linnunlahdentie,3
261,49.9057793,8.8427767,Verkehrsübungsplatz,DE,64807,Dieburg,Am Bauhof,12
262,51.5994324,6.1507635,Flughafen Weeze,DE,47652,Weeze,Flughafen-Ring,1
263,51.7583115,12.4475289,Ferropolis,DE,06773,Gräfenhainichen,Ferropolisstraße,1
264,52.3491,11.83503,\N,DE,39517,Bertingen,Unter den Eichen,2
265,51.1380533,9.2488491,"Festivalgelände ""Am Lohrberg""",DE,34560,Fritzlar,Bonifatiusstraße,31
266,52.1909627,9.8111337,VaZ Speicher,DE,31171,Nordstemmen,An der Zuckerfabrik,50
267,53.7615446,8.6727651,Seeflughafen Cuxhaven,DE,27639,Wurster Nordseeküste,Walter-Carstens-Straße,1
268,50.0951493,8.4117234,Baars Techno Shuppen,DE,65719,\N,L3018,\N
269,48.26348,8.84664,Messegelände Balingen,DE,72336,Balingen,Ausstellungsgel. Stetten,1
270,53.0704389,8.8196932,Osterdeichwiesen,DE,28203,Bremen,Oberweserstraße,6
271,50.4067688,3.7562951,\N,BE,7370,Dour,Rue d'Elouges,252
272,51.58433,9.3355,Sportplatz Manrode,DE,34434,Borgentreich,Pfingstanger,16
273,50.559246,15.9027259,Schlachtfeld Trautenau (Battlefield),CZ,541 01,Trutnov,Komenského,213
274,46.9290164,7.4489732,Gurten,CH,3084,Köniz,Weidenaustrasse,11
275,54.08927,9.07399,Rathausplatz Meldorf,DE,25704,Meldorf,Zingelstraße,2
276,52.1942161,8.7842427,AQUA Magica,DE,32545,Löhne,Bültestraße,50
277,50.238175,8.7552963,Am Selzerbrunnen,DE,61184,Karben,Brunnenstraße,2
278,49.741047,6.6460998,Exhaus Trier,DE,54295,Trier,Hans-Böckler-Allee,10
279,47.6505288,10.2616184,Martinszell,DE,87448,Waltenhofen,\N,\N
280,53.47182,9.9491001,Bei den Tipsy Apes,DE,21079,Hamburg,Am Radeland,25a
281,53.47182,9.9491001,Tipsy Apes (TAM e.V.),DE,21079,Hamburg,Am Radeland,25a
282,52.3020247,13.8009591,Reitplatz Friedersdorf,DE,15754,Heidesee,Fürstenwalder Straße,101
283,48.3811468,10.8737168,Helmut-Haller-Platz,DE,86154,Augsburg,Branderstraße,1
284,50.6514133,11.0779482,Gebörne Garsitz,DE,07426,Königsee,Garsitz,19
285,54.3376794,10.1554092,\N,DE,24105,Kiel,Düsternbrooker Weg,104
286,47.2340702,9.5917653,Altes Hallenbad,AT,6800,Feldkirch,Reichenfeldgasse,10
287,51.0611217,11.0397306,"Alperstedter See, Erfurt-Stotternheim",DE,99195,Markvippach,Alperstedter Straße,\N
288,51.573199,13.793354,Bergheider See,DE,03238,Lichterfeld-Schacksdorf,\N,\N
289,47.3544723,15.0699875,VAZS - Schladnitz Leoben,AT,8700,Göss,Schladnitzstraße,53
290,50.5648561,7.5830384,Wiesengelände Müllerhof,DE,56317,Urbach,Hauptstraße,46
291,40.47707,-3.622,\N,ES,28055,Madrid,Calle Prov Parque Valdebebas 5,51
292,51.54713,12.96799,Entenfang Torgau,DE,04860,Torgau,Entenfang,1
293,51.4668809,6.5505783,Halde Norddeutschland (Dongberg),DE,47506,Neukirchen-Vluyn,Geldernsche Straße,\N
294,45.3173996,-75.1832534,LeBreton Flats,CA,\N,\N,Trans-Canada Highway,\N
295,49.11179,9.11548,\N,DE,74226,Nordheim,Gräfenbrunnen,1
296,49.2152422,17.8385035,\N,CZ,763 12,Vizovice,Razov,\N
297,53.5507515,10.0017259,Hamburger Großmarkt,DE,20095,Hamburg,dreescher markt,2
298,53.5013527,9.9841112,Wilhelmsburg am Reiherstieg,DE,21107,Hamburg,Schlengendeich,12
299,49.298271,9.825162,Innenstadt,DE,74673,Mulfingen,Unterer Mühlweg,24
300,52.65513,9.6349153,\N,DE,29690,Schwarmstedt,Oberhäuser Weg,5
301,48.26379,8.8468714,Messegelände Balingen,DE,72336,Balingen,Auf Stetten,4
302,53.364084,11.606755,Flugplatz Neustadt-Glewe,DE,19306,Neustadt-Glewe,Flugplatz,1
303,47.8239808,13.1737064,Der Salzburgring,AT,5325,Plainfeld,Salzburgring,1
304,51.11872,10.26818,Sportplatz Falken,DE,99830,Treffurt,Kahnstraße,7
305,47.8463971,16.5190237,Schlosspark,AT,7000,Eisenstadt,Esterhazyplatz,1
306,54.37634,9.70531,Andrejs Garten,DE,24361,Holzbunge,Karksiek,3
307,51.4962954,6.9033979,OlgaPark,DE,46117,Oberhausen,\N,\N
308,51.4162078,9.6469294,"Tanzwerder, Hann. Münden",DE,34346,Hann. Münden,Tanzwerder,1
309,51.6264889,6.8309294,\N,DE,46569,Hünxe,Langer Weg,\N
310,48.2339415,8.6296654,\N,DE,78661,Dietingen,Epfendorfer Weg,10
311,50.8530024,2.8308701,\N,BE,8908,Ieper,Poperingseweg,136
312,48.592579,8.4189171,Sportgelände,DE,72297,Seewald,Kirchweg,6
313,49.54131,7.33175,\N,DE,66871,Pfeffelbach,Kuseler Straße,9
314,52.05691,7.58343,\N,DE,48268,Greven,Am Max-Klemens-Kanal,9
315,52.1676714,9.9229728,Flugplatzgelände,DE,31137,Hildesheim,Carl-Zeiss-Straße,24B
316,52.759902,-1.6833509,Catton Park,GB,DE12 8LZ,Walton-on-Trent,Main Street,43
317,49.3567834,9.3990133,"Hergbstbachtalarena, Möckmühl-Korb",DE,74219,Möckmühl,Raiffeisenweg,10
318,46.8906149,7.0415516,Römische Arenen,CH,1580,Avenches,Route de l'Estivage,5
319,50.0167999,12.1569903,\N,DE,95615,Marktredwitz,Weidersberg,5
320,53.2342524,8.7816244,Gut Sandbeck,DE,27711,Osterholz-Scharmbeck,Sandbeckstraße,13
321,51.8491254,5.6926685,De Groene Heuvels,NL,6644 KR,Ewijk,Ficarystraat,9
322,60.427923,22.1801694,\N,FI,20100,Åbo,Folkparksvägen,76
323,52.16112,10.53032,Seeliger Park,DE,38300,Wolfenbüttel,Schulwall,1
324,50.4263293,10.7312097,Lange Heide,DE,98646,Hildburghausen,Schloßparkpassage,4
325,51.0184462,6.9235775,Fühlinger See Regattainsel,DE,50769,Köln,Oranjehofstraße,\N
326,52.5155098,13.3847539,Gendarmenmarkt,DE,10117,Berlin,\N,\N
327,50.9695967,4.6869484,Werchter Festivalpark,BE,3118,Rotselaar,Haachtsesteenweg,13
328,52.7348458,12.579127,Freilichtbühne Friesack,DE,14662,Friesack,Berliner Allee,20
329,43.6716937,-7.5942221,\N,ES,27869,Viveiro,Estrada Ribadeo-Pirixel,2
330,49.1296926,17.5362352,Burovce - Topolna,CZ,687 11,Topolná,\N,\N
331,49.1921749,8.1353326,Neuer Messplatz Landau - City Beach,DE,76829,Landau in der Pfalz,Max-Planck-Straße,1
332,49.1921749,8.1353326,Neuer Messeplatz Landau - City Beach,DE,76829,Landau in der Pfalz,Max-Planck-Straße,1
333,51.9468192,7.6387992,\N,DE,48155,Münster,Am Hawerkamp,11
334,55.6219605,12.0788892,\N,DK,4000,Roskilde,Darupvej,19
335,48.0787096,8.3657375,Freihlichtbühne Schlossberg,DE,78089,Unterkirnach,Villinger Straße,3/F
336,53.6245971,11.4181883,Schweriner Schloss,DE,19053,Schwerin,Lennéstraße,1
337,48.2931941,11.6273942,Freizeitgelände Eching,DE,85386,Eching,Hirtenstraße,83
338,53.5432808,9.9777099,Hamburg,DE,20459,Hamburg,Überseebrücke,\N
339,47.8789502,12.007068,ehem. US-Kaserne Bad Aibling,DE,83043,Bad Aibling,Filzenwiesenweg,\N
340,49.2416549,10.9635262,Burg Abenberg bei Nürnberg,DE,91183,Abenberg,Rother Straße,1
341,46.2777845,11.3665392,Festplatz Altrei,IT,39040,Guggal,\N,\N
342,53.5423712,10.0226865,Großmarkt Hamburg,DE,20097,Hamburg,Auf der Brandshofer Schleuse,4
343,60.1851616,24.9761481,\N,FI,00540,Helsingfors,\N,\N
344,53.8349729,9.7379664,\N,DE,25364,Brande-Hörnerkirchen,Schierenhöh,13
345,46.6871831,7.8480153,\N,CH,3800,Unterseen,Freihofstrasse,6
346,48.7035681,10.3898788,Härtsfeldsee,DE,89561,Dischingen,Härtsfeldstraße,\N
347,53.4592742,7.0618989,\N,DE,26736,Krummhörn,Meestereistraße,7
348,46.1663212,8.787655,\N,CH,6600,Locarno,Via Rovedo,14
349,48.23055,9.88907,\N,DE,88471,Laupheim,Claus-Graf-Stauffenberg-Straße,15
350,51.1496159,-2.5761208,Worthy Farm,GB,BA4 4HR,Pilton,Cockmill Lane,\N
351,62.7642118,22.8400699,Festpark von Törnäväsaari,FI,60200,\N,Törnäväntie,20
352,51.4956615,5.895317,\N,NL,5813 EB,Ysselsteyn,Agrobaan,15
353,49.1350424,12.1396995,Outdoor Arena,DE,93128,Regenstauf,Wöhrhofweg,6
354,47.894,12.53035,Chíemsee Strand,DE,83339,Chieming,Chiemseering,1
355,52.6704452,9.9114597,\N,DE,29308,Winsen (Aller),Oheweg,25A
356,49.0072171,8.3525781,Günter-Klotz Anlage,DE,76185,Karlsruhe,\N,\N
357,52.219,10.6859,Rittergut Veltheim,DE,38173,Veltheim (Ohe),Am Gute,1
358,53.301083,12.7371937,Flugplatz Lärz,DE,17248,Lärz,Am Flugplatz,\N
359,49.16574,9.95178,Arena Hohenlohe,DE,74532,Ilshofen,Justus-von-Liebig-Straße,1
360,50.87989,6.0222812,Ehemalige Trabrennbahn,NL,6372 XC,Landgraaf,Hofstraat,13
361,48.9339102,13.04301,Geisskopf,DE,94253,Bischofsmais,Unterbreitenau,3
362,53.9893182,9.5681348,Flugplatz Hungriger Wolf,DE,25551,Hohenlockstedt,Towerstraße,20
363,47.0864509,-1.280468,\N,FR,44190,Clisson,Rue de la Collégiale,6
364,50.2236978,6.8434154,\N,DE,54550,Daun,Rengener Straße,8
365,53.55207,9.93302,Altona,DE,22765,Hamburg,Ottenser Hauptstraße,1A
366,51.2455742,5.1235191,\N,BE,2480,Dessel,Heegstraat,33
367,52.8428489,12.718732,\N,DE,16833,Fehrbellin,Mühlenbergstraße,3
368,47.9596072,8.9578086,\N,DE,78579,Neuhausen ob Eck,Im Morgen,2
369,53.1591887,9.5222445,\N,DE,27383,Scheeßel,Westerveseder Landstraße,\N
370,47.6347354,17.0427435,Pannonian Steppe / nähe Neusiedler See,HU,9339,Kapuvár,85117,\N
371,50.241843,15.8375483,\N,CZ,503 41,Hradec Králové,Letiště,36
372,49.21386,9.09871,Bonfeld Schlosshof,DE,74906,Bad Rappenau,Rappenauer Straße,38
373,51.88562,12.25394,Wasserburg Rosslau,DE,06862,Dessau-Roßlau,Am Schloßgarten,18B
374,49.3045,9.80534,Sportplatz,DE,74673,Mulfingen,Herrenwiesenweg,22
375,49.8925766,9.5873667,Burg Rothenfels,DE,97851,Rothenfels,Bergrothenfelser Straße,71
376,48.052906,11.090747,\N,DE,86938,Schondorf am Ammersee,St2055,6
377,51.7410157,12.3633393,Freibad Möhlau,DE,06791,Gräfenhainichen,Brotweg,1
378,52.278733,14.4998809,\N,DE,15236,Frankfurt (Oder),Helenesee,5
379,48.4848335,9.6824908,Flugplatz Laichingen,DE,89150,Laichingen,Im Grübler,14
380,50.85389,11.20419,Niederburg,DE,99448,Kranichfeld,Schloßgasse,18B
381,48.1429789,11.6649491,Olympia Reitanlage,DE,81929,München,Landshamer Straße,11
382,50.320135,11.903145,Parkplatz Freiheitshalle Hof,DE,95030,Hof,Kulmbacher Straße,4
383,46.7696062,11.6635132,Ex Nato Areal Natz,IT,39040,Schabs,Pustertaler Straße,2
384,55.6914061,12.6170607,\N,DK,1432,København,Refshalevej,185
385,53.14076,8.2198202,umBAUbar,DE,26122,Oldenburg,Stau,25-27
386,49.11294,9.78445,Kantine Open Air Areal,DE,74523,Schwäbisch Hall,Alfred-Leikam-Straße,7
387,51.54056,7.11511,Bahnbetriebswerk,DE,45889,Gelsenkirchen,Grimbergstraße,18
388,51.5205601,5.13075,\N,NL,5081,Hilvarenbeek,Beekse Bergen,\N
389,51.38468,11.61251,Festplatz Querfurt,DE,06268,Querfurt,Obhäuser Weg,10
390,52.8300818,-1.3696388,Donington Park,GB,DE74 2RP,Castle Donington,\N,\N
391,53.0884717,8.8101782,Magazinkeller Bremen,DE,28215,Bremen,Findorffstraße,51
392,51.39201,6.70527,Friemersheimer Mühle,DE,47229,Duisburg,Clarenbachstraße,14
393,53.4927518,8.447881,Osterwiese,DE,26954,Nordenham,Infelder Weg,27
394,50.9460929,6.9722237,Tanzbrunnen Köln,DE,50679,Köln,Rheinparkweg,1
395,49.474868,8.7197271,Gelände des Push e.V,DE,69198,Schriesheim,L596a,\N
396,53.07307,13.62178,Gästehaus Ahlimbsmühle,DE,17268,Milmersdorf,Ahlimbsmühle,3
397,48.1451545,11.521786,Kulturzentrum Backstage München,DE,80639,München,Reitknechtstraße,6
398,53.7615489,8.6727616,Seeflughafen Cuxhaven,DE,27639,Wurster Nordseeküste,Walter-Carstens-Straße,1
399,53.7615819,8.6729039,Seeflughafen Cuxhaven,DE,27639,Wurster Nordseeküste,Walter-Carstens-Straße,1
400,50.5545066,15.9042077,Schlachtfeld Trautenau (Battlefield),CZ,541 01,Trutnov,Královédvorská,\N
401,50.6232996,12.4024196,Mühlteich Hauptmannsgrün,DE,08468,Heinsdorfergrund,Irfersgrüner Straße,\N
402,43.78121,11.22822,\N,IT,50144,Firenze,Viale del Visarno,5
403,50.89062,8.12724,AWo-Gelände Deuz,DE,57250,Netphen,Weiherdamm,3
404,46.6806354,7.8666365,Flugplatz Interlaken,CH,3800,Matten bei Interlaken,Rütigässli,1
405,52.514199,11.42073,Erlebnisbad Gardelegen,DE,39638,Gardelegen,Magdeburger Landstraße,20
406,47.75395,9.96536,\N,DE,88299,Leutkirch im Allgäu,Uttenhofen,42
407,47.9415942,17.0707582,Pannonia Fields II,AT,2425,Nickelsdorf,Urbarialgasse,27
408,50.067192,19.9589015,Tauron Arena,PL,31-516,Kraków,Mogilska,20
409,50.6967462,8.9967795,Grillhütte Büßfeld,DE,35315,Homberg (Ohm),Gießener Straße,3
410,48.3861963,10.8663749,Gaswerk Augsburg,DE,86156,Augsburg,August-Wessels-Straße,30
411,50.1192384,8.6983464,Online,DE,60316,Frankfurt am Main,Sandweg,52
412,51.6585033,12.4290069,Goitzschesee Pouch,DE,06774,Muldestausee,\N,\N
413,51.5492667,9.916825,Haus der Kulturen,DE,37081,Göttingen,Hagenweg,2s
414,49.7900128,9.9368261,Kilianeum - Haus der Jugend,DE,97070,Würzburg,Ottostraße,1
415,51.96245,8.52944,Senner Waldbad,DE,33659,Bielefeld,Am Waldbad,74
416,51.398481,9.4738934,Freizeitanlage Steinbruch,DE,34314,Espenau,Kasseler Straße,16
417,47.0569384,15.4482717,Stadthalle Graz,AT,8010,Graz,Fröhlichgasse,39a
418,53.3597462,11.6141659,Flugplatz Neustadt-Glewe,DE,19306,Neustadt-Glewe,Flugplatz,1
419,53.119411,9.3831439,StrandHouse am Weichelsee,DE,27356,Rotenburg (Wümme),Bremer Straße,48
420,60.6516688,24.8836558,Hyvinkää Airport,FI,05820,Hyvinkää,Lentokentäntie,40
421,52.4169498,9.7455061,Star Event Center,DE,30179,Hannover,Alter Flughafen,11a
422,50.0321104,12.0073307,Am Katharinenberg,DE,95632,Wunsiedel,Am Katharinenberg,4
423,53.4553185,9.7987975,Schützenverein Neu Wulmstorf,DE,21629,Neu Wulmstorf,Wulmstorfer Straße,66
424,49.7542408,13.373051,Amphitheater Pilsen,CZ,301 00,\N,Lochotínská,348
425,48.1317574,10.9938583,Schloss Kaltenberg,DE,82269,Geltendorf,Schloßstraße,8
426,51.276105,4.051236,\N,NL,4561 GT,Hulst,Van der Maelstedeweg,4
427,49.4240138,11.1069209,Volkspark Dutzendteich,DE,90471,Nürnberg,Münchener Straße,283
428,53.5316484,9.9852574,Hamburger Hafen,DE,20457,Hamburg,Kamerunweg,11
429,50.3340981,6.9426625,Nürburgring,DE,53520,Nürburg,Nürburgring Grand-Prix Strecke,1
430,52.026636,11.278425,Motorsportarena Oschersleben,DE,39387,Oschersleben (Bode),Motopark-Allee,20
431,52.1069776,9.2966461,Festivalgelände am Freibad in Halvestorf/Hameln,DE,31787,Hameln,Pferdeweg,1
432,56.0518419,14.5941918,\N,SE,294 31,Sölvesborg,Sölvesborgsbron,\N
433,46.3682132,26.4915288,The central square of Dărmănești,RO,605300,Dărmănești,Strada Muncii,11
434,49.360523,7.1185953,Auf der Bergehalde,DE,66578,Schiffweiler,Kohlengrubstraße,112A
435,49.360523,7.1185953,Auf der Alm,DE,66578,Schiffweiler,Kohlengrubstraße,112A
436,49.7522955,8.8240215,Bauernhof,DE,64405,Fischbachtal,Rodensteiner Straße,87
437,52.1388904,11.6665035,Elbauenpark Magdeburg,DE,39114,Magdeburg,Tessenowstraße,7
438,50.6871653,7.6437466,Festzelt,DE,57610,Altenkirchen (Westerwald),Zum Weyerdamm,7
439,50.5880377,6.6489522,Mühlenpark Mechernich,DE,53894,Mechernich,B477,73
440,48.31201,12.15675,FKK OpenAir Gelände,DE,84405,Dorfen,Taggrub,1
441,50.83926,12.81297,Stausee Oberrabenstein,DE,09117,Chemnitz,Oberfrohnaer Straße,165
442,51.8502876,5.6921864,De Groene Heuvels,NL,6644 KR,Ewijk,Ficarystraat,9
443,49.1226502,17.5377636,Burovce - Topolna,CZ,687 11,Topolná,\N,\N
444,50.8666186,9.7023282,"Bad Hersfeld, Stiftruine",DE,36251,Bad Hersfeld,Im Stift,6
445,53.1608182,9.5092271,Fa. Behrens & Behrens,DE,27383,Scheeßel,Westerveseder Landstraße,28
446,52.3253119,9.8351239,Expo Plaza,DE,30521,Hannover,\N,\N
447,47.1811945,9.2762182,Werkhof Bischof,CH,9656,Alt Saint Johann,\N,\N
448,51.4395237,6.6190639,"Enni Eventhalle, Parkbühne, Dorfbühne, weitere Spielstätten in der Stadt (drinnen & draußen)",DE,47447,Moers,Filder Straße,140
449,51.6717096,9.3821921,Glitterhouse Garten,DE,37688,Beverungen,Grüner Weg,25
450,47.9892924,10.232528,Ehemaliger Militärflugplatz,DE,87766,Memmingerberg,Am Flughafen,35
451,51.3383504,12.3634475,\N,DE,04109,Leipzig,Friedrich-Ebert-Straße,45
452,49.8695282,8.6506852,Innenstadtgelände,DE,64283,Darmstadt,Hügelstraße,43
453,51.5223376,7.034242,Amphitheater Gelsenkirchen,DE,45883,Gelsenkirchen,Grothusstraße,201
454,48.13831,9.54015,\N,DE,88525,Dürmentingen,Betzenweiler Straße,47
455,52.1240541,11.6195971,Glacis-Park & Festungsanlage Ravelin 2,DE,39104,Magdeburg,Maybachstraße,1
456,48.9614732,13.1290271,\N,DE,94209,Regen,Spitalhof,8
457,51.8903913,14.3164401,\N,DE,03185,Drachhausen,Sand,101
458,47.8789752,11.9908525,ehem. US-Kaserne Bad Aibling,DE,83043,Bad Aibling,Otto-Wels-Straße,2
459,53.4118369,7.0943561,\N,DE,26736,Krummhörn,An der Kreisstraße,2
460,51.48151,7.1987499,Westpark,DE,44793,Bochum,An der Jahrhunderthalle,1
461,49.860494,11.7937652,\N,DE,95469,Speichersdorf,Bürgermeister-Kohl-Siedlung,16
462,52.96986,11.98784,\N,DE,19336,Bad Wilsnack,Haaren,7A
463,48.2471116,12.985027,\N,DE,84375,Kirchdorf am Inn,Grafen-von-Berchem-Straße,96
464,50.273941,8.8638688,\N,DE,61130,Nidderau,Berliner Straße,7
465,49.16024,11.72048,Burg Parsberg,DE,92331,Parsberg,Burgstraße,24
466,53.7587718,13.3471312,Köllner Rockscheune,DE,17089,Werder,Dorfstraße,2
467,48.680603,10.8550091,\N,DE,86698,Oberndorf am Lech,Pfarrer-Waldmann-Straße,25
468,52.3866757,6.4130544,\N,NL,7448 RZ,Haarle,Luttenbergerweg,31
469,50.969609,14.290874,\N,DE,01855,Sebnitz,Tannertstraße,52
470,52.7349335,8.2880496,Stoppelmarkt,DE,49377,Vechta,Oldenburger Straße,40
471,51.4872577,11.9600411,Waldbühne am Peißnitzhaus,DE,06108,Halle (Saale),Jägerplatz,15
472,52.4364316,8.2708625,\N,DE,49163,Bohmte,Hauptstraße,26
473,51.4822201,11.4827517,Schweinsburg Bornstedt,DE,06295,Bornstedt,Neue Sorge,23A
474,40.3703979,-3.7077579,Caja Mágica,ES,28041,Madrid,Calle Gran Avenida,25
475,51.0575496,13.7170648,Diverse,DE,01067,Dresden,Marienstraße,7
476,48.1878371,16.4128968,Arena Wien,AT,1030,Wien,Baumgasse,80
477,50.147304,9.1405069,Freigerichthalle-Altenmittlau,DE,63579,Freigericht,Kegelbahnstraße,1
478,51.23378,11.2581601,Niederburg,DE,99625,Beichlingen,Straße des Friedens,70
479,49.6823566,11.1443515,DJK Weingarts,DE,91358,Kunreuth,Egloffsteiner Straße,6
480,50.9698061,4.6862543,Werchter Festivalpark,BE,3118,Rotselaar,Haachtsesteenweg,\N
481,53.0889429,8.8118102,Congress Centrum Bremen,DE,28215,Bremen,Findorffstraße,101
482,51.10991,12.43302,Kulturpark Deutzen,DE,04574,Neukieritzsch,Arno-Bahndorf-Straße,12
483,53.62628,8.83367,Rasengelände des Niedersächsichen Internatsgymnasiums,DE,27624,Geestland,Seminarstraße,8
484,50.0247217,7.9454618,Rheinwiesen,DE,65366,Geisenheim,\N,\N
485,49.410556,7.376667,Sportplatz Kübelberg,DE,66901,Schönenberg-Kübelberg,Glanstraße,46
486,50.876786,-0.1262901,City Centre,GB,BN1,Brighton,Ditchling Road,\N
487,51.56152,13.01481,Brückenkopf Torgau,DE,04860,Torgau,Brückenkopf,1
488,47.073364,9.4953065,Sportplatz Rheinau Balzers,LI,9496,Balzers,Rheinau,1
489,51.1100149,12.4304482,Kulturpark Deutzen,DE,04574,Neukieritzsch,Barbarastraße,20
490,51.5576483,5.0930041,Poppodium 013,NL,5038 CV,Tilburg,Veemarktstraat,44
491,53.86124,8.7066901,UNIKAT Erlebnisgastronomie,DE,27472,Cuxhaven,Neufelder Straße,12X
492,52.4966473,13.4530078,Arena Berlin,DE,12435,Berlin,Eichenstraße,4
493,41.6434849,-8.6863512,\N,PT,4905-335,Barroselas,Avenida São Paulo da Cruz,\N
494,50.42535,7.4239301,Jugendzentrum Andernach,DE,56626,Andernach,Stadionstraße,88
495,51.4965556,7.4559961,Westfalenhalle,DE,44139,Dortmund,Rheinlanddamm,200
496,51.4965556,7.4559961,Westfalenhalle Dortmund,DE,44139,Dortmund,Rheinlanddamm,200
497,52.5640702,11.0192231,\N,DE,38486,Klötze,Am Park,2
498,48.1201129,12.3340025,HUB,DE,83567,Unterreit,Wasserburger Straße,6
499,51.5945138,10.063228,Grillplatz Holzerode,DE,37136,Ebergötzen,Hünstollenstraße,15
500,52.1074416,9.2956635,Festivalgelände am Freibad in Halvestorf/Hameln,DE,31787,Hameln,Pferdeweg,1
501,53.4124823,10.2644516,Stover Strand,DE,21423,Drage,Winsener Straße,30E
502,51.525569,5.1142085,\N,NL,5081 NJ,Hilvarenbeek,Beekse Bergen,1
503,52.4131585,7.5344507,\N,DE,48480,Schapen,Otto-Hahn-Straße,5
504,51.4855814,9.6039468,Wesertalhalle,DE,34359,Reinhardshagen,\N,\N
505,51.4855814,9.6039468,Weserhalle Reinhardshagen,DE,34359,Reinhardshagen,\N,\N
506,48.28288,8.58375,Neckarhalle,DE,78727,Oberndorf am Neckar,Austraße,12
507,59.9174129,10.7284719,"Rockefeller, John Dee, Kniven & Vaterland",NO,0010,Oslo,Henrik Ibsens gate,1
508,51.6406543,5.4178394,Manege de Molenheide,NL,5482 ZR,Schijndel,De Heikampen,5
509,50.1989946,8.6033294,Burgwiesenhalle Oberursel,DE,61440,Oberursel (Taunus),Im Himmrich,9
510,49.7945976,10.1931705,Frankenhalle Dettelbach,DE,97337,Dettelbach,Adolf-Oesterheld-Straße,12
511,51.4812331,6.883238,ResonanzWerk,DE,46047,Oberhausen,Essener Straße,259
512,36.1683572,-115.1393531,Fremont Country Club (Friday) Backstage Bar & Billiards (Saturday),US,89101,Las Vegas,Fremont Street,601
513,-33.8139875,150.9979502,Parramatta Park,AU,2150,Parramatta,Pitt Street,2-4
514,-37.7820968,144.9089635,Melbourne Showgrounds,AU,3032,Ascot Vale,Langs Road,36
515,53.3407812,-3.3693045,Presthaven Beach Resort,GB,LL19 9SJ,Gronant,Bethesda Street,\N
516,38.0036316,23.721745,Gagarin Club,GR,104 45,Athina,Liosion,205
517,53.9879336,9.569919,Flugplatz Hungriger Wolf,DE,25551,Hohenlockstedt,Towerstraße,20
518,54.138118,11.6756817,Zur Ranch,DE,18230,Bastorf,Zum Strande,3
519,49.7595744,13.3612577,Amphitheater Pilsen,CZ,301 00,\N,Pod Vinicemi,9
520,49.7595744,13.3612577,Lochotínský amfiteátr,CZ,301 00,\N,Pod Vinicemi,9
521,52.5050422,13.4424869,Verti Music Hall,DE,10243,Berlin,Mühlenstraße,15
522,52.1037614,9.3661014,\N,DE,31785,Hameln,Lohstraße,1-2
523,47.2328543,-1.5568934,La Scène Michelet,FR,44000,Nantes,Boulevard Henry Orrion,1
524,53.4576494,9.9860654,Rieckhof Harburg,DE,21073,Hamburg,Rieckhoffstraße,12
525,54.9789832,-1.6156078,Newcastle University Students' Union,GB,NE1 8QB,Newcastle upon Tyne,King's Road,65
526,52.382992,4.6286359,Patronaat Haarlem,NL,2013 DN,Haarlem,Zijlsingel,2
527,49.8017263,9.9335366,Posthalle Würzburg,DE,97070,Würzburg,Bahnhofplatz,2
528,52.4734647,-1.9003781,O2 Academy Birmingham,GB,B1 1DB,Birmingham,Bow Street,17
529,52.20143,13.70753,KiEZ Hölzerner See,DE,15754,Heidesee,Zum Hölzernen See,1
530,51.3524472,12.3762062,Stadtbad,DE,04105,Leipzig,Eutritzscher Straße,21
531,47.8532062,12.1312803,Lokschuppen Rosenheim,DE,83022,Rosenheim,Am Nörreut,8
532,52.198835,8.5777547,Universum Bünde,DE,32257,Bünde,Bahnhofstraße,36
533,51.7543316,14.3335681,Gladhouse Cottbus,DE,03046,Cottbus,Straße der Jugend,16
534,52.6183642,11.3414859,Sportplatz Engersen,DE,39638,Engersen,Ortsstraße,28
535,49.3473157,7.1177659,Auf der Alm,DE,66578,Schiffweiler,Bildstockstraße,6
536,51.522449,7.0341037,Amphitheater Gelsenkirchen,DE,45883,Gelsenkirchen,Grothusstraße,201
537,50.0701819,19.9868584,Tauron Arena,PL,31-571,Kraków,Stanisława Lema,24
538,53.2187685,7.7997989,\N,DE,26689,Apen,Zur Festung,12A
539,26.1242719,-80.128901,\N,US,33301,Fort Lauderdale,Northeast 2nd Street,1320
540,52.861732,9.5930916,\N,DE,29664,Walsrode,Moorstraße,27
541,50.6308594,12.392518,Mühlteich,DE,08468,Heinsdorfergrund,Hauptstraße,75
542,51.8297851,5.8338268,Goffertpark,NL,6532 TN,Nijmegen,Muntweg,428
543,52.3866996,6.4187701,Hellendoorn Woods,NL,7448,Haarle,Luttenbergerweg,\N
544,52.4964226,13.4532015,Arena Berlin,DE,12435,Berlin,Am Flutgraben,2
545,51.283112,4.0283127,\N,NL,4561,Hulst,Hogeweg,\N
546,51.9630088,7.6267552,\N,DE,48143,Münster,Domplatz,36
547,49.7857614,7.6515499,Flugplatz Pferdsfeld,DE,55566,Bad Sobernheim,Saarstraße,28
548,51.4965508,7.4560193,Westfalenhalle,DE,44139,Dortmund,Rheinlanddamm,200
549,47.1972495,9.3082874,Werkhof Bischof,CH,9657,Alt Sankt Johann,Dorf,1090
550,50.5863425,8.6613575,Messe Giessen / Hessenhallen,DE,35398,Gießen,An der Hessenhalle,11
551,50.2724256,8.8651005,\N,DE,61130,Nidderau,Bönstädter Straße,1
552,48.41103,9.96429,Hexenhaus Ulm,DE,89075,Ulm,Mähringer Weg,75
553,50.7737782,9.5660224,Dorfgemeinschaftshaus Niederjossa,DE,36272,Niederaula,Alsfelder Straße,1
554,52.4731301,-1.9002557,O2 Academy,GB,B1 1DB,Birmingham,Horse Fair,18
555,52.6765723,10.7020903,Schützenhaus,DE,29379,Wittingen,Schützenstraße,19
556,51.352388,12.3760696,Stadtbad,DE,04105,Leipzig,Eutritzscher Straße,21
557,50.5875298,8.6819813,JOKUS Gießen,DE,35390,Gießen,Ostanlage,25A
558,53.4555335,9.799457,Schützenverein Neu Wulmstorf,DE,21629,Neu Wulmstorf,Wulmstorfer Straße,65
559,51.121838,5.0752598,\N,BE,2450,Meerhout,Genebroek,26
560,39.7112905,2.7879401,Mein Schiff 6,ES,07340,Alaró,Carrer Puig de sa Comuna,123
561,47.065225,8.2989581,Sedel,CH,6020,Emmen,Sedelhof,2
562,51.6406352,5.417799,Manege de Molenheide,NL,5482 ZR,Schijndel,De Heikampen,5
563,52.1214963,4.9862723,Kasteel de Haar,NL,3455 RR,Utrecht,Kasteellaan,1
564,-37.7888678,144.9062808,Flemington Racecourse,AU,3031,Flemington,\N,\N
565,33.6683871,-117.9046818,OC Fair & Event Center,US,92626,Costa Mesa,Fair Drive,88
566,48.1405717,11.5227963,Born to Rock,DE,80687,München,Landsberger Straße,185
567,53.0981817,8.8125449,Kulturzentrum Schlachthof,DE,28215,Bremen,Hemmstraße,331
568,48.9805919,8.3302841,Messe Karlsruhe,DE,76287,Rheinstetten,Messeallee,1
569,52.0919704,8.6500658,Rathausplatz Herford,DE,32052,Herford,Elverdisser Straße,221
570,51.41283,12.2389121,Am Flughafen Leipzig/Halle,DE,04105,Leipzig,Berliner Straße,6
571,49.3281351,8.5647701,Hockenheimring,DE,68766,Hockenheim,Am Motodrom,\N
572,51.3954727,12.3988051,Leipziger Messe,DE,04356,Leipzig,Messe-Allee,1
573,52.9906276,11.758235,Alte Ölmühle,DE,19322,Wittenberge,Bad Wilsnacker Straße,52
